{
    "app_categories": {
        "Development": "ಅಭಿವೃದ್ಧಿ",
        "Games": "ಆಟಗಳು",
        "Graphics": "ಗ್ರಾಫಿಕ್ಸ್",
        "Internet": "ಅಂತರ್ಜಾಲ",
        "Money": "ಹಣ",
        "Multimedia": "ಬಹುಮಾಧ್ಯಮ",
        "Navigation": "ಸಂಚರಣೆ",
        "Phone & SMS": "ಫೋನ್ ಮತ್ತು SMS",
        "Reading": "ಓದು",
        "Science & Education": "ವಿಜ್ಞಾನ ಮತ್ತು ಶಿಕ್ಷಣ",
        "Security": "ಸುರಕ್ಷತೆ",
        "Sports & Health": "ಕ್ರೀಡೆ & ಆರೋಗ್ಯ",
        "System": "ಸಿಸ್ಟಮ್",
        "Time": "ಸಮಯ",
        "Writing": "ಬರವಣಿಗೆ"
    },
    "mirrors": {
        "cn": "ಚೀನಾದ ಮುಖ್ಯಭೂಭಾಗ",
        "de": "ಜರ್ಮನಿ",
        "se": "ಸ್ವೀಡನ್",
        "tw": "ತೈವಾನ್",
        "ua": "ಉಕ್ರೈನ್"
    },
    "permissions": {
        "permdesc_acceptHandovers": "ಮತ್ತೊಂದು ಅಪ್ಲಿಕೇಶನ್‌ನಲ್ಲಿ ಪ್ರಾರಂಭವಾದ ಕರೆಯನ್ನು ಮುಂದುವರಿಸಲು ಅಪ್ಲಿಕೇಶನ್‌ಗೆ ಅವಕಾಶ ಮಾಡಿಕೊಡಿ.",
        "permdesc_accessBackgroundLocation": "ಈ ಆ್ಯಪ್ ಬಳಕೆಯಲ್ಲಿಲ್ಲದಿರುವಾಗಲೂ ಸಹ ಸ್ಥಳವನ್ನು ಯಾವುದೇ ಸಮಯದಲ್ಲಾದರೂ ಪ್ರವೇಶಿಸಬಹುದು.",
        "permdesc_accessCoarseLocation": "ಈ ಆ್ಯಪ್ ಬಳಕೆಯಲ್ಲಿರುವಾಗ ನಿಮ್ಮ ಅಂದಾಜು ಸ್ಥಳವನ್ನು, ಸ್ಥಳ ಸೇವೆಗಳಿಂದ ಪಡೆಯಬಹುದು. ಆ್ಯಪ್ ನಿಮ್ಮ ಸ್ಥಳವನ್ನು ಪಡೆಯಲು ನಿಮ್ಮ ಸಾಧನಕ್ಕಾಗಿ ಸ್ಥಳ ಸೇವೆಗಳನ್ನು ಆನ್ ಮಾಡಬೇಕು.",
        "permdesc_accessDrmCertificates": "DRM ಪ್ರಮಾಣಪತ್ರಗಳಿಗೆ ಅನುಮತಿ ಕಲ್ಪಿಸಲು ಮತ್ತು ಬಳಸಲು ಅಪ್ಲಿಕೇಶನ್‌ಗೆ ಅನುಮತಿಸುತ್ತದೆ. ಸಾಮಾನ್ಯ ಅಪ್ಲಿಕೇಶನ್‌ಗಳಿಗೆ ಎಂದಿಗೂ ಅಗತ್ಯವಿರುವುದಿಲ್ಲ.",
        "permdesc_accessFineLocation": "ಈ ಆ್ಯಪ್ ಬಳಕೆಯಲ್ಲಿರುವಾಗ ನಿಮ್ಮ ನಿಖರವಾದ ಸ್ಥಳವನ್ನು, ಸ್ಥಳ ಸೇವೆಗಳಿಂದ ಪಡೆಯಬಹುದು. ಆ್ಯಪ್ ನಿಮ್ಮ ಸ್ಥಳವನ್ನು ಪಡೆಯಲು ನಿಮ್ಮ ಸಾಧನಕ್ಕಾಗಿ ಸ್ಥಳ ಸೇವೆಗಳನ್ನು ಆನ್ ಮಾಡಬೇಕು. ಇದು ಬ್ಯಾಟರಿ ಬಳಕೆಯನ್ನು ಹೆಚ್ಚಿಸಬಹುದು.",
        "permdesc_accessImsCallService": "ನಿಮ್ಮ ಮಧ್ಯಸ್ಥಿಕೆ ಇಲ್ಲದೆಯೇ ಕರೆಗಳನ್ನು ಮಾಡಲು IMS ಸೇವೆಯನ್ನು ಬಳಸಲು ಅಪ್ಲಿಕೇಶನ್ ಅನ್ನು ಅನುಮತಿಸುತ್ತದೆ.",
        "permdesc_accessLocationExtraCommands": "ಹೆಚ್ಚಿನ ಸ್ಥಳ ಪೂರೈಕೆದಾರ ಆದೇಶಗಳನ್ನು ಪ್ರವೇಶಿಸಲು ಅಪ್ಲಿಕೇಶನ್‍‍ಗೆ ಅವಕಾಶ ನೀಡುತ್ತದೆ. ಇದು GPS ಅಥವಾ ಇತರ ಸ್ಥಳ ಮೂಲಗಳ ಕಾರ್ಯಾಚರಣೆಯಲ್ಲಿ ಮಧ್ಯ ಪ್ರವೇಶಿಸಲು ಅಪ್ಲಿಕೇಶನ್‍‍ಗೆ ಅನುಮತಿಸಬಹುದು.",
        "permdesc_accessNetworkConditions": "ನೆಟ್‌ವರ್ಕ್ ಪರಿಸ್ಥಿತಿಗಳ ಕುರಿತು ಪರಿಶೀಲನೆಗಾಗಿ ಆಲಿಸಲು ಅಪ್ಲಿಕೇಶನ್‌ಗೆ ಅನುಮತಿಸುತ್ತದೆ. ಸಾಮಾನ್ಯ ಅಪ್ಲಿಕೇಶನ್‌ಗಳಿಗಾಗಿ ಎಂದಿಗೂ ಅಗತ್ಯವಿರುವುದಿಲ್ಲ.",
        "permdesc_accessNetworkState": "ಅಸ್ತಿತ್ವದಲ್ಲಿರುವ ಮತ್ತು ಸಂಪರ್ಕಗೊಂಡಿರುವ ಸಂಪರ್ಕಗಳಂತಹ ನೆಟ್‍‍ವರ್ಕ್ ಸಂಪರ್ಕಗಳ ಕುರಿತ ಮಾಹಿತಿಯನ್ನು ವೀಕ್ಷಿಸಲು ಅಪ್ಲಿಕೇಶನ್‍‍ಗೆ ಅನುಮತಿಸುತ್ತದೆ.",
        "permdesc_accessNotifications": "ಇತರ ಅಪ್ಲಿಕೇಶನ್‌ಗಳ ಮೂಲಕ ಪೋಸ್ಟ್ ಮಾಡಿರುವ ಅಧಿಸೂಚನೆಗಳೂ ಸೇರಿದಂತೆ, ಅಂತಹ ಅಧಿಸೂಚನೆಗಳನ್ನು ಹಿಂಪಡೆದುಕೊಳ್ಳಲು, ಪರೀಕ್ಷಿಸಲು ಮತ್ತು ತೆರವುಗೊಳಿಸಲು ಅಪ್ಲಿಕೇಶನ್‌ಗೆ ಅನುಮತಿಸುತ್ತದೆ.",
        "permdesc_accessWifiState": "ವೈ-ಫೈ ಸಕ್ರಿಯಗೊಂಡಿದೆಯೇ ಮತ್ತು ಸಂಪರ್ಕಿಸಲಾದ ವೈ-ಫೈ ಸಾಧನಗಳ ಹೆಸರಿನ ಮಾಹಿತಿ ರೀತಿಯ, ವೈ-ಫೈ ನೆಟ್‍‍ವರ್ಕ್ ಕುರಿತು ಮಾಹಿತಿಯನ್ನು ವೀಕ್ಷಿಸಲು ಅಪ್ಲಿಕೇಶನ್‍‍ಗೆ ಅವಕಾಶ ನೀಡುತ್ತದೆ.",
        "permdesc_accessWimaxState": "WiMAX ಸಕ್ರಿಯಗೊಂಡಿದೆಯೇ ಮತ್ತು ಸಂಪರ್ಕಗೊಂಡಿರುವಂತಹ WiMAX ನೆಟ್‍‍ವರ್ಕ್‌ಗಳ ಕುರಿತು ಮಾಹಿತಿಯನ್ನು ನಿರ್ಧರಿಸಲು ಅಪ್ಲಿಕೇಶನ್‍‍ಗೆ ಅವಕಾಶ ನೀಡುತ್ತದೆ.",
        "permdesc_access_notification_policy": "ಅಡಚಣೆ ಮಾಡಬೇಡಿ ಕಾನ್ಫಿಗರೇಶನ್ ಅನ್ನು ಓದಲು ಮತ್ತು ಬರೆಯಲು ಅಪ್ಲಿಕೇಶನ್‌ಗೆ ಅನುಮತಿಸುತ್ತದೆ.",
        "permdesc_activityRecognition": "ಈ ಆ್ಯಪ್‌ ನಿಮ್ಮ ದೈಹಿಕ ಚಟುವಟಿಕೆಯನ್ನು ಗುರುತಿಸಬಹುದು.",
        "permdesc_addVoicemail": "ನಿಮ್ಮ ದ್ವನಿಮೇಲ್‌ ಇನ್‌‌ಬಾಕ್ಸ್‌‌ಗೆ ಸಂದೇಶಗಳನ್ನು ಸೇರಿಸಲು ಅಪ್ಲಿಕೇಶನ್‌ಗೆ ಅನುಮತಿಸುತ್ತದೆ.",
        "permdesc_answerPhoneCalls": "ಒಳಬರುವ ಫೋನ್ ಕರೆಗೆ ಉತ್ತರಿಸಲು ಅಪ್ಲಿಕೇಶನ್ ಅನ್ನು ಅನುಮತಿಸುತ್ತದೆ.",
        "permdesc_audioWrite": "ನಿಮ್ಮ ಸಂಗೀತ ಸಂಗ್ರಹಣೆಯನ್ನು ಮಾರ್ಪಡಿಸಲು ಆ್ಯಪ್‌ಗೆ ಅನುಮತಿಸುತ್ತದೆ.",
        "permdesc_backgroundCamera": "ಈ ಆ್ಯಪ್ ಯಾವ ಸಮಯದಲ್ಲಾದರೂ ಕ್ಯಾಮರಾ ಬಳಸಿಕೊಂಡು ಚಿತ್ರಗಳು ಮತ್ತು ವಿಡಿಯೋಗಳನ್ನು ರೆಕಾರ್ಡ್ ಮಾಡಬಹುದು.",
        "permdesc_bindCarrierMessagingService": "ವಾಹಕ ಸಂದೇಶ ಕಳುಹಿಸುವಿಕೆ ಸೇವೆಯ ಮೇಲ್ಮಟ್ಟದ ಇಂಟರ್ಫೇಸ್‌ಗೆ ಪ್ರತಿಬಂಧಿಸಲು ಹೊಂದಿರುವವರಿಗೆ ಅವಕಾಶ ಮಾಡಿಕೊಡುತ್ತದೆ. ಸಾಮಾನ್ಯ ಅಪ್ಲಿಕೇಶನ್‌ಗಳಿಗಾಗಿ ಎಂದಿಗೂ ಅಗತ್ಯವಿರುವುದಿಲ್ಲ.",
        "permdesc_bindCarrierServices": "ವಾಹಕ ಸೇವೆಗಳನ್ನು ಪ್ರತಿಬಂಧಿಸಲು ಹೊಂದಿರುವವರಿಗೆ ಅನುಮತಿಸುತ್ತದೆ. ಸಾಮಾನ್ಯ ಅಪ್ಲಿಕೇಶನ್‌ಗಳಿಗೆ ಎಂದಿಗೂ ಅಗತ್ಯವಿರುವುದಿಲ್ಲ.",
        "permdesc_bindCellBroadcastService": "ಸೆಲ್ ಪ್ರಸಾರವು ಸಂದೇಶಗಳನ್ನು ಸ್ವೀಕರಿಸಿದ ರೀತಿಯಲ್ಲಿಯೇ ಫಾರ್ವರ್ಡ್ ಮಾಡಲು, ಸೆಲ್ ಪ್ರಸಾರ ಮಾಡ್ಯುಲ್‌ ಅನ್ನು ಪ್ರತಿಬಂಧಿಸಲು ಆ್ಯಪ್‌ಗೆ ಅನುಮತಿಸುತ್ತದೆ. ಕೆಲವು ಸ್ಥಳಗಳಲ್ಲಿ ತುರ್ತು ಸ್ಥಿತಿಗಳ ಕುರಿತು ನಿಮಗೆ ಎಚ್ಚರಿಸಲು ಸೆಲ್ ಪ್ರಸಾರದ ಎಚ್ಚರಿಕೆಗಳನ್ನು ಕಳುಹಿಸಲಾಗುತ್ತದೆ. ತುರ್ತು ಸೆಲ್‌ ಪ್ರಸಾರವನ್ನು ಸ್ವೀಕರಿಸಿದಾಗ ನಿಮ್ಮ ಸಾಧನದ ಕಾರ್ಯಾಚರಣೆ ಅಥವಾ ಕಾರ್ಯಕ್ಷಮತೆಗೆ ದುರುದ್ದೇಶಪೂರಿತ ಆ್ಯಪ್‌ಗಳು ಹಸ್ತಕ್ಷೇಪ ಮಾಡಬಹುದು.",
        "permdesc_bindConditionProviderService": "ಕಂಡೀಶನ್‌ ಪೂರೈಕೆದಾರರ ಮೇಲ್ಮಟ್ಟದ ಇಂಟರ್ಫೇಸ್‌ಗೆ ಪ್ರತಿಬಂಧಿಸಲು ಹೊಂದಿರುವವರಿಗೆ ಅವಕಾಶ ಮಾಡಿಕೊಡುತ್ತದೆ. ಸಾಮಾನ್ಯ ಅಪ್ಲಿಕೇಶನ್‌ಗಳಿಗೆ ಎಂದಿಗೂ ಅಗತ್ಯವಿರುವುದಿಲ್ಲ.",
        "permdesc_bindDreamService": "ಕನಸಿನ ಸೇವೆಯ ಮೇಲ್ಮಟ್ಟದ ಇಂಟರ್ಫೇಸ್‌ಗೆ ಪ್ರತಿಬಂಧಿಸಲು ಮಾಲೀಕರಿಗೆ ಅವಕಾಶ ನೀಡುತ್ತದೆ. ಸಾಮಾನ್ಯ ಅಪ್ಲಿಕೇಶನ್‌ಗಳಿಗೆ ಎಂದಿಗೂ ಅಗತ್ಯವಿರುವುದಿಲ್ಲ.",
        "permdesc_bindNotificationListenerService": "ಅಧಿಸೂಚನೆ ಕೇಳುಗ ಸೇವೆಯ ಮೇಲ್ಮಟ್ಟದ ಇಂಟರ್ಫೇಸ್‌ಗೆ ಪ್ರತಿಬಂಧಿಸಲು ಹೊಂದಿರುವವರಿಗೆ ಅವಕಾಶ ಮಾಡಿಕೊಡುತ್ತದೆ. ಸಾಮಾನ್ಯ ಅಪ್ಲಿಕೇಶನ್‌ಗಳಿಗೆ ಎಂದಿಗೂ ಅಗತ್ಯವಿರುವುದಿಲ್ಲ.",
        "permdesc_bind_connection_service": "ಕರೆಗಳನ್ನು ಮಾಡಲು/ಸ್ವೀಕರಿಸುವ ನಿಟ್ಟಿನಲ್ಲಿ ಲಿಫೋನಿ ಸೇವೆಗಳ ಜೊತೆ ಸಂವಾದ ನಡೆಸಲು ಅಪ್ಲಿಕೇಶನ್‌ಗೆ ಅವಕಾಶ ಮಾಡಕೊಡಿ.",
        "permdesc_bind_incall_service": "ಬಳಕೆದಾರರು ಒಳ-ಕರೆಯ ಪರದೆಯನ್ನು ಯಾವಾಗ ಮತ್ತು ಹೇಗೆ ನೋಡುತ್ತಾರೆ ಎಂಬುದನ್ನು ನಿಯಂತ್ರಿಸಲು ಅಪ್ಲಿಕೇಶನ್‌ಗೆ ಅವಕಾಶ ಮಾಡಿಕೊಡುತ್ತದೆ.",
        "permdesc_bluetooth": "ಟ್ಯಾಬ್ಲೆಟ್‍‍ನಲ್ಲಿ ಬ್ಲೂಟೂತ್‌‌ನ ಕಾನ್ಫಿಗರೇಶನ್ ಅನ್ನು ವೀಕ್ಷಿಸಲು ಮತ್ತು ಜೋಡಿ ಮಾಡಿರುವ ಸಾಧನಗಳೊಂದಿಗೆ ಸಂಪರ್ಕಗಳನ್ನು ಕಲ್ಪಿಸಲು ಹಾಗೂ ಸ್ವೀಕರಿಸಲು ಅಪ್ಲಿಕೇಶನ್‍‍ಗೆ ಅವಕಾಶ ನೀಡುತ್ತದೆ.",
        "permdesc_bluetoothAdmin": "ಸ್ಥಳೀಯ ಬ್ಲೂಟೂತ್‌‌ ಟ್ಯಾಬ್ಲೆಟ್‌‌ ಕಾನ್ಫಿಗರ್‌ ಮಾಡಲು ಮತ್ತು ಅನ್ವೇಷಿಸಲು ಹಾಗೂ ರಿಮೊಟ್‌ ಸಾಧನಗಳ ಜೊತೆಗೆ ಜೋಡಿ ಮಾಡಲು ಅಪ್ಲಿಕೇಶನ್‌ ಅನುಮತಿಸುತ್ತದೆ.",
        "permdesc_bluetooth_advertise": "ಸಮೀಪದ ಬ್ಲೂಟೂತ್ ಸಾಧನಗಳಿಗೆ ಜಾಹೀರಾತು ನೀಡಲು ಆ್ಯಪ್‌ಗೆ ಅನುಮತಿಸುತ್ತದೆ",
        "permdesc_bluetooth_connect": "ಜೋಡಿಸಲಾಗಿರುವ ಬ್ಲೂಟೂತ್ ಸಾಧನಗಳಿಗೆ ಕನೆಕ್ಟ್ ಮಾಡಲು ಆ್ಯಪ್‌ಗೆ ಅನುಮತಿಸುತ್ತದೆ",
        "permdesc_bluetooth_scan": "ಸಮೀಪದಲ್ಲಿರುವ ಬ್ಲೂಟೂತ್ ಸಾಧನಗಳನ್ನು ಅನ್ವೇಷಿಸಲು ಮತ್ತು ಅವುಗಳಿಗೆ ಜೋಡಿಸಲು ಆ್ಯಪ್‌ಗೆ ಅನುಮತಿಸಿ",
        "permdesc_bodySensors": "ನಿಮ್ಮ ಹೃದಯ ಬಡಿತದಂತಹ ನಿಮ್ಮ ದೈಹಿಕ ಸ್ಥಿತಿಯನ್ನು ಮೇಲ್ವಿಚಾರಣೆ ಮಾಡುವ ಸೆನ್ಸರ್‌‌ಗಳಿಂದ ಡೇಟಾ ಪ್ರವೇಶಿಸಲು ಅಪ್ಲಿಕೇಶನ್‌ ಅವಕಾಶ ಮಾಡಿಕೊಡುತ್ತದೆ.",
        "permdesc_bodySensors_background": "ಆ್ಯಪ್ ಹಿನ್ನಲೆಯಲ್ಲಿರುವಾಗ ಹೃದಯ ಬಡಿತ, ತಾಪಮಾನ ಮತ್ತು ರಕ್ತದ ಆಮ್ಲಜನಕದ ಶೇಕಡಾವಾರು ಎಂಬಂತಹ ದೇಹದ ಸೆನ್ಸರ್‌ ಡೇಟಾವನ್ನು ಪ್ರವೇಶಿಸಲು ಆ್ಯಪ್‌ಗೆ ಅನುಮತಿಸುತ್ತದೆ.",
        "permdesc_broadcastSticky": "ಪ್ರಸಾರ ಕೊನೆಗೊಂಡ ನಂತರ ಹಾಗೆಯೇ ಉಳಿಯುವ ಸ್ಟಿಕಿ ಪ್ರಸಾರಗಳನ್ನು ಕಳುಹಿಸಲು ಅಪ್ಲಿಕೇಶನ್‍‍ಗೆ ಅನುಮತಿಸುತ್ತದೆ. ಮಿತಿಮೀರಿದ ಬಳಕೆಯು ಟ್ಯಾಬ್ಲೆಟ್ ಅನ್ನು ನಿಧಾನಗೊಳಿಸಬಹುದು ಅಥವಾ ಅತಿಯಾದ ಮೆಮೊರಿ ಬಳಕೆಯು ಅಸ್ಥಿರತೆಯನ್ನು ಉಂಟುಮಾಡಬಹುದು.",
        "permdesc_callCompanionApp": "ಸಾಧನದಲ್ಲಿನ ಚಾಲ್ತಿಯಲ್ಲಿರುವ ಕರೆಗಳನ್ನು ವೀಕ್ಷಿಸಲು ಮತ್ತು ನಿಯಂತ್ರಿಸಲು ಆ್ಯಪ್ ಅನುಮತಿಸುತ್ತದೆ. ಕರೆಗಳಿಗೆ ಸಂಬಂಧಿಸಿದ ಕರೆ ಸಂಖ್ಯೆಗಳು ಮತ್ತು ಕರೆ ಮಾಡಿದ ರಾಜ್ಯದಂತಹ ಮಾಹಿತಿಯನ್ನು ಇದು ಒಳಗೊಂಡಿರುತ್ತದೆ.",
        "permdesc_callPhone": "ನಿಮ್ಮ ಹಸ್ತಕ್ಷೇಪ ಇಲ್ಲದೆಯೇ ಫೋನ್‍ ಸಂಖ್ಯೆಗಳಿಗೆ ಕರೆ ಮಾಡಲು ಅಪ್ಲಿಕೇಶನ್‍‍ಗೆ ಅನುಮತಿಸುತ್ತದೆ. ಇದು ಅನಿರೀಕ್ಷಿತ ಶುಲ್ಕಗಳು ಅಥವಾ ಕರೆಗಳಿಗೆ ಕಾರಣವಾಗಬಹುದು. ತುರ್ತು ಸಂಖ್ಯೆಗಳಿಗೆ ಕರೆಮಾಡಲು ಈ ಅಪ್ಲಿಕೇಶನ್‍ ಅನುಮತಿಸುವುದಿಲ್ಲ ಎಂಬುದು ಗಮನದಲ್ಲಿರಲಿ. ದುರುದ್ದೇಶಪೂರಿತ ಅಪ್ಲಿಕೇಶನ್‍‍ಗಳು ನಿಮ್ಮ ಖಾತರಿ ಇಲ್ಲದೆಯೇ ಕರೆಗಳನ್ನು ಮಾಡುವುದರ ಮೂಲಕ ನಿಮ್ಮ ಹಣ ಖರ್ಚಾಗಬಹುದು.",
        "permdesc_camera": "ಆ್ಯಪ್ ಬಳಕೆಯಲ್ಲಿರುವಾಗ, ಈ ಆ್ಯಪ್ ಕ್ಯಾಮರಾ ಬಳಸಿ ಚಿತ್ರಗಳನ್ನು ತೆಗೆಯಬಹುದು ಮತ್ತು ವೀಡಿಯೊಗಳನ್ನು ರೆಕಾರ್ಡ್ ಮಾಡಬಹುದು.",
        "permdesc_cameraOpenCloseListener": "ಯಾವುದೇ ಕ್ಯಾಮರಾ ಸಾಧನವನ್ನು ತೆರೆಯುತ್ತಿರುವಾಗ ಅಥವಾ ಮುಚ್ಚುತ್ತಿರುವಾಗ (ಯಾವ ಅಪ್ಲಿಕೇಶನ್‌ನಿಂದ ಎಂಬ ಮಾಹಿತಿಯ ಮೂಲಕ) ಈ ಆ್ಯಪ್, ಕಾಲ್‌ಬ್ಯಾಕ್‌ಗಳನ್ನು ಸ್ವೀಕರಿಸಬಹುದು.",
        "permdesc_changeNetworkState": "ನೆಟ್‌ವರ್ಕ್‌ ಸಂಪರ್ಕದ ಸ್ಥಿತಿಯನ್ನು ಬದಲಾಯಿಸಲು ಅಪ್ಲಿಕೇಶನ್‌ ಅನುಮತಿಸುತ್ತದೆ.",
        "permdesc_changeTetherState": "ಟೆಥರ್‌ ಮಾಡಲಾದ ನೆಟ್‌ವರ್ಕ್‌ ಸಂಪರ್ಕದ ಸ್ಥಿತಿಯನ್ನು ಬದಲಾಯಿಸಲು ಅಪ್ಲಿಕೇಶನ್‌‌ಗೆ ಅನುಮತಿಸುತ್ತದೆ.",
        "permdesc_changeWifiMulticastState": "ನಿಮ್ಮ ಟ್ಯಾಬ್ಲೆಟ್ ಮಾತ್ರವಲ್ಲದೇ, ಮಲ್ಟಿಕ್ಯಾಸ್ಟ್ ವಿಳಾಸಗಳನ್ನು ಬಳಸಿಕೊಂಡು ವೈ-ಫೈ ನೆಟ್‍‍ವರ್ಕ್‌ನಲ್ಲಿ ಎಲ್ಲಾ ಸಾಧನಗಳಿಗೆ ಕಳುಹಿಸಲಾಗಿರುವ ಪ್ಯಾಕೆಟ್‍‍ಗಳನ್ನು ಸ್ವೀಕರಿಸಲು ಅಪ್ಲಿಕೇಶನ್‍‍ಗೆ ಅವಕಾಶ ನೀಡುತ್ತದೆ. ಇದು ಮಲ್ಟಿಕ್ಯಾಸ್ಟ್ ಅಲ್ಲದ ಮೋಡ್ ಬಳಸುವ ಶಕ್ತಿಗಿಂತಲೂ ಹೆಚ್ಚಿನ ಶಕ್ತಿಯನ್ನು ಬಳಸುತ್ತದೆ.",
        "permdesc_changeWifiState": "ವೈ-ಫೈ ಪ್ರವೇಶ ಕೇಂದ್ರಗಳಿಂದ ಸಂಪರ್ಕ ಹೊಂದಲು ಮತ್ತು ಸಂಪರ್ಕ ಕಡಿತಗೊಳಿಸಲು, ಹಾಗೆಯೇ ವೈ-ಫೈ ನೆಟ್‍‍ವರ್ಕ್‌ಗಳಿಗೆ ಸಾಧನದ ಕನ್ಫಿಗರೇಶನ್‍ ಬದಲಾಯಿಸಲು ಅಪ್ಲಿಕೇಶನ್‍‍ಗೆ ಅವಕಾಶ ಮಾಡಿಕೊಡುತ್ತದೆ.",
        "permdesc_changeWimaxState": "ಅಪ್ಲಿಕೇಶನ್ ಅನ್ನು ಟ್ಯಾಬ್ಲೆಟ್‌ಗೆ ಸಂಪರ್ಕಪಡಿಸಲು ಮತ್ತು WiMAX ನೆಟ್‍‍ವರ್ಕ್‌ಗಳಿಂದ ಟ್ಯಾಬ್ಲೆಟ್ ಅನ್ನು ಸಂಪರ್ಕ ಕಡಿತಗೊಳಿಸಲು ಅವಕಾಶ ಮಾಡಿಕೊಡುತ್ತದೆ.",
        "permdesc_connection_manager": "ಟೆಲಿಕಾಂ ಸಂಪರ್ಕಗಳನ್ನು ನಿರ್ವಹಿಸಲು ಅಪ್ಲಿಕೇಶನ್ ಅವಕಾಶ ಮಾಡಿಕೊಡುತ್ತದೆ.",
        "permdesc_control_incall_experience": "ಒಳ ಕರೆಯ ಬಳಕೆದಾರರ ಅನುಭವವನ್ನು ಒದಗಿಸಲು ಅಪ್ಲಿಕೇಶನ್‌ ಅನುಮತಿಸುತ್ತದೆ.",
        "permdesc_createNetworkSockets": "ನೆಟ್‍‍ವರ್ಕ್ ಸಾಕೆಟ್‍‍ಗಳನ್ನು ರಚಿಸಲು ಮತ್ತು ಕಸ್ಟಮ್ ನೆಟ್‍‍ವರ್ಕ್ ಪ್ರೊಟೋಕಾಲ್‍‍ಗಳನ್ನು ಬಳಸಲು ಅಪ್ಲಿಕೇಶನ್‌ಗೆ ಅವಕಾಶ ಮಾಡಿಕೊಡುತ್ತದೆ. ಬ್ರೌಸರ್ ಮತ್ತು ಇತರ ಅಪ್ಲಿಕೇಶನ್‌ಗಳು ಇಂಟರ್ನೆಟ್‌ಗೆ ಡೇಟಾ ಕಳುಹಿಸಲು ಮಾರ್ಗವನ್ನುಂಟು ಮಾಡುತ್ತದೆ ಹಾಗಾಗಿ ಇಂಟರ್ನೆಟ್‌ಗೆ ಡೇಟಾ ಕಳುಹಿಸಲು ಈ ಅನುಮತಿ ಅಗತ್ಯವಿರುವುದಿಲ್ಲ.",
        "permdesc_disableKeyguard": "ಕೀಲಾಕ್ ಮತ್ತು ಯಾವುದೇ ಸಂಬಂಧಿತ ಭದ್ರತಾ ಪಾಸ್‍‍ವರ್ಡ್ ಭದ್ರತೆಯನ್ನು ನಿಷ್ಕ್ರಿಯಗೊಳಿಸಲು ಅಪ್ಲಿಕೇಶನ್‍‍ಗೆ ಅನುಮತಿ ನೀಡುತ್ತದೆ. ಉದಾಹರಣೆಗೆ, ಒಳಬರುವ ಕರೆಯನ್ನು ಸ್ವೀಕರಿಸುವಾಗ ಕೀಲಾಕ್ ಅನ್ನು ಫೋನ್ ನಿಷ್ಕ್ರಿಯಗೊಳಿಸುತ್ತದೆ, ನಂತರ ಕರೆಯು ಅಂತ್ಯಗೊಂಡಾಗ ಕೀಲಾಕ್ ಅನ್ನು ಮರು ಸಕ್ರಿಯಗೊಳಿಸುತ್ತದೆ.",
        "permdesc_enableCarMode": "ಕಾರು‌ ಮೋಡ್‌ ಸಕ್ರಿಯಗೊಳಿಸಲು ಅಪ್ಲಿಕೇಶನ್‌‌ಗೆ ಅನುಮತಿಸುತ್ತದೆ.",
        "permdesc_exemptFromAudioRecordRestrictions": "ಆಡಿಯೋ ರೆಕಾರ್ಡ್ ಮಾಡುವ ನಿರ್ಬಂಧದಿಂದ ಈ ಆ್ಯಪ್‌ಗೆ ವಿನಾಯಿತಿ ನೀಡಿ.",
        "permdesc_expandStatusBar": "ಸ್ಥಿತಿ ಪಟ್ಟಿಯನ್ನು ವಿಸ್ತರಿಸಲು ಅಥವಾ ಸಂಕುಚಿಸಲು ಅಪ್ಲಿಕೇಶನ್‌‌ಗೆ ಅನುಮತಿಸುತ್ತದೆ.",
        "permdesc_foregroundService": "ಮುನ್ನೆಲೆ ಸೇವೆಗಳನ್ನು ಬಳಸಲು ಅಪ್ಲಿಕೇಶನ್‌ಗೆ ಅವಕಾಶ ಮಾಡಿಕೊಡಿ.",
        "permdesc_fullScreenIntent": "ಲಾಕ್ ಮಾಡಲಾದ ಸಾಧನದಲ್ಲಿ ಅಧಿಸೂಚನೆಗಳನ್ನು ಪೂರ್ಣ-ಸ್ಕ್ರೀನ್ ಚಟುವಟಿಕೆ ರೀತಿಯಲ್ಲಿ ಡಿಸ್‌ಪ್ಲೇ ಮಾಡಲು ಆ್ಯಪ್‌ಗೆ ಅನುಮತಿಸಿ",
        "permdesc_getAccounts": "ಟ್ಯಾಬ್ಲೆಟ್ ಮೂಲಕ ತಿಳಿದಿರುವ ಖಾತೆಗಳ ಪಟ್ಟಿಯನ್ನು ಪಡೆದುಕೊಳ್ಳಲು ಅಪ್ಲಿಕೇಶನ್‍‍ಗೆ ಅವಕಾಶ ಮಾಡಿಕೊಡುತ್ತದೆ. ಇದು ನೀವು ಸ್ಥಾಪಿಸಿರುವ ಅಪ್ಲಿಕೇಶನ್ ಮೂಲಕ ರಚಿಸಲಾದ ಯಾವುದೇ ಖಾತೆಯನ್ನು ಒಳಗೊಂಡಿರಬಹುದು.",
        "permdesc_getPackageSize": "ಅದರ ಕೋಡ್‌‌, ಡೇಟಾ, ಮತ್ತು ಕ್ಯಾಷ್‌ ಗಾತ್ರಗಳನ್ನು ಹಿಂಪಡೆಯಲು ಅಪ್ಲಿಕೇಶನ್‌‌ಗೆ ಅನುಮತಿಸುತ್ತದೆ",
        "permdesc_getTasks": "ಪ್ರಸ್ತುತವಿರುವ ಮತ್ತು ಇತ್ತೀಚಿಗೆ ಚಾಲ್ತಿಯಾಗಿರುವ ಕಾರ್ಯಗಳ ಕುರಿತ ಮಾಹಿತಿಯನ್ನು ಮರುಪಡೆದುಕೊಳ್ಳಲು ಅಪ್ಲಿಕೇಶನ್‍‍ಗೆ ಅವಕಾಶ ಮಾಡಿಕೊಡುತ್ತದೆ. ಇದು ಸಾಧನದಲ್ಲಿ ಯಾವ ಅಪ್ಲಿಕೇಶನ್‌ಗಳನ್ನು ಬಳಸಲಾಗಿದೆ ಎಂಬುದರ ಕುರಿತ ಮಾಹಿತಿಯನ್ನು ಅನ್ವೇಷಿಸಲು ಅಪ್ಲಿಕೇಶನ್‌ಗೆ ಅನುಮತಿಸಬಹುದು.",
        "permdesc_handoverStatus": "ಪ್ರಸ್ತುತ Android Beam ವರ್ಗಾವಣೆಗಳ ಕುರಿತ ಮಾಹಿತಿಯನ್ನು ಸ್ವೀಕರಿಸಲು ಈ ಅಪ್ಲಿಕೇಶನ್‌ಗೆ ಅನುಮತಿಸಿ",
        "permdesc_highSamplingRateSensors": "200 Hz ಗಿಂತಲೂ ಹೆಚ್ಚಿನ ವೇಗದಲ್ಲಿ ಸೆನ್ಸಾರ್ ಡೇಟಾದ ಮಾದರಿ ಪರೀಕ್ಷಿಸಲು ಆ್ಯಪ್‌ಗೆ ಅನುಮತಿಸಿ",
        "permdesc_imagesWrite": "ನಿಮ್ಮ ಫೋಟೋ ಸಂಗ್ರಹಣೆಯನ್ನು ಮಾರ್ಪಡಿಸಲು ಆ್ಯಪ್‌ಗೆ ಅನುಮತಿಸುತ್ತದೆ.",
        "permdesc_install_shortcut": "ಬಳಕೆದಾರರ ಮಧ್ಯಸ್ಥಿಕೆ ಇಲ್ಲದೆಯೇ ಹೋಮ್‌ಸ್ಕ್ರೀನ್ ಶಾರ್ಟ್‌ಕಟ್‌ಗಳನ್ನು ಸೇರಿಸಲು ಅಪ್ಲಿಕೇಶನ್‌ಗೆ ಅವಕಾಶ ಮಾಡಿಕೊಡುತ್ತದೆ.",
        "permdesc_invokeCarrierSetup": "ವಾಹಕ-ಒದಗಿಸಿರುವ ಕಾನ್ಫಿಗರೇಶನ್ ಅಪ್ಲಿಕೇಶನ್ ಅನ್ನು ವಿನಂತಿಸಲು ಹೊಂದಿರುವವರಿಗೆ ಅವಕಾಶ ಮಾಡಿಕೊಡುತ್ತದೆ. ಸಾಮಾನ್ಯ ಅಪ್ಲಿಕೇಶನ್‌ಗಳಿಗಾಗಿ ಎಂದಿಗೂ ಅಗತ್ಯವಿರುವುದಿಲ್ಲ.",
        "permdesc_killBackgroundProcesses": "ಇತರ ಅಪ್ಲಿಕೇಶನ್‍‍ಗಳ ಹಿನ್ನೆಲೆ ಪ್ರಕ್ರಿಯೆಗಳನ್ನು ಅಂತ್ಯಗೊಳಿಸಲು ಅಪ್ಲಿಕೇಶನ್‍‍ಗೆ ಅವಕಾಶ ಮಾಡಿಕೊಡುತ್ತದೆ. ಇದು ಇತರ ಅಪ್ಲಿಕೇಶನ್‍‍ಗಳ ಚಾಲನೆಯನ್ನು ನಿಲ್ಲಿಸುವುದಕ್ಕೆ ಕಾರಣವಾಗಬಹುದು.",
        "permdesc_manageFace": "ಬಳಕೆಗೆ ಮುಖದ ಟೆಂಪ್ಲೇಟ್‌ಗಳನ್ನು ಸೇರಿಸಲು ಮತ್ತು ಅಳಿಸಲು ವಿಧಾನಗಳನ್ನು ಮನವಿ ಮಾಡಲು ಅಪ್ಲಿಕೇಶನ್‌ಗೆ ಅನುಮತಿಸುತ್ತದೆ.",
        "permdesc_manageFingerprint": "ಬಳಕೆಗೆ ಫಿಂಗರ್‌ಪ್ರಿಂಟ್ ಟೆಂಪ್ಲೇಟ್‌ಗಳನ್ನು ಸೇರಿಸಲು ಮತ್ತು ಅಳಿಸಲು ವಿಧಾನಗಳನ್ನು ಮನವಿ ಮಾಡಲು ಅಪ್ಲಿಕೇಶನ್‌ಗೆ ಅನುಮತಿಸುತ್ತದೆ.",
        "permdesc_manageNetworkPolicy": "ನೆಟ್‌‌ವರ್ಕ್‌ ನೀತಿಗಳನ್ನು ನಿರ್ವಹಿಸಲು ಮತ್ತು ಅಪ್ಲಿಕೇಶನ್ ನಿರ್ದಿಷ್ಟ ನಿಯಮಗಳನ್ನು ವ್ಯಾಖ್ಯಾನಿಸಲು ಅಪ್ಲಿಕೇಶನ್‌‌ಗೆ ಅನುಮತಿಸುತ್ತದೆ.",
        "permdesc_manageOngoingCalls": "ನಿಮ್ಮ ಸಾಧನದಲ್ಲಿನ ಚಾಲ್ತಿಯಲ್ಲಿರುವ ಕರೆಗಳ ಕುರಿತಾದ ವಿವರಗಳನ್ನು ನೋಡಲು ಮತ್ತು ಆ ಕರೆಗಳನ್ನು ನಿಯಂತ್ರಿಸಲು ಆ್ಯಪ್ ಒಂದಕ್ಕೆ ಅನುಮತಿಸುತ್ತದೆ.",
        "permdesc_manageOwnCalls": "ಕರೆಯ ಅನುಭವವನ್ನು ಸುಧಾರಿಸಲು ಅಪ್ಲಿಕೇಶನ್‌ನ ಕರೆಗಳನ್ನು ಸಿಸ್ಟಂ ಮೂಲಕ ರವಾನಿಸಲು ಅನುಮತಿಸುತ್ತದೆ.",
        "permdesc_manageProfileAndDeviceOwners": "ಪ್ರೊಫೈಲ್ ಮಾಲೀಕರು ಮತ್ತು ಸಾಧನ ಮಾಲೀಕರನ್ನು ಹೊಂದಿಸಲು ಅಪ್ಲಿಕೇಶನ್‌ಗಳನ್ನು ಅನುಮತಿಸುತ್ತದೆ.",
        "permdesc_mediaLocation": "ನಿಮ್ಮ ಮೀಡಿಯಾ ಸಂಗ್ರಹಣೆಯಿಂದ ಸ್ಥಳಗಳನ್ನು ಓದಲು ಆ್ಯಪ್‌ಗೆ ಅನುಮತಿಸುತ್ತದೆ.",
        "permdesc_modifyAudioSettings": "ವಾಲ್ಯೂಮ್ ರೀತಿಯ ಮತ್ತು ಔಟ್‍‍ಪುಟ್‍‍ಗಾಗಿ ಯಾವ ಸ್ಪೀಕರ್ ಬಳಸಬೇಕು ಎಂಬ ರೀತಿಯ ಜಾಗತಿಕ ಆಡಿಯೊ ಸೆಟ್ಟಿಂಗ್‌ಗಳನ್ನು ಮಾರ್ಪಡಿಸಲು ಅಪ್ಲಿಕೇಶನ್‍‍ಗೆ ಅವಕಾಶ ಮಾಡಿಕೊಡುತ್ತದೆ.",
        "permdesc_modifyNetworkAccounting": "ಅಪ್ಲಿಕೇಶನ್‍‍ಗಳಿಗೆ ವಿರುದ್ಧವಾಗಿ ನೆಟ್‍‍ವರ್ಕ್ ಬಳಕೆಯನ್ನು ಹೇಗೆ ಲೆಕ್ಕಿಸಲಾಗಿದೆ ಎಂಬುದನ್ನು ಮಾರ್ಪಡಿಸಲು ಅಪ್ಲಿಕೇಶನ್‍‍ಗೆ ಅವಕಾಶ ಮಾಡಿಕೊಡುತ್ತದೆ. ಸಾಮಾನ್ಯ ಅಪ್ಲಿಕೇಶನ್‍‍ಗಳಲ್ಲಿ ಬಳಸಲಾಗುವುದಿಲ್ಲ.",
        "permdesc_nearby_wifi_devices": "ಹತ್ತಿರದ ವೈ -ಫೈ ಸಾಧನಗಳ ಸಂಬಂಧಿತ ಸ್ಥಾನವನ್ನು ಸೂಚಿಸಲು, ಕನೆಕ್ಟ್ ಮಾಡಲು ಮತ್ತು ನಿರ್ಧರಿಸಲು ಆ್ಯಪ್‌ಗೆ ಅನುಮತಿಸುತ್ತದೆ",
        "permdesc_nfc": "ಸಮೀಪದ ಕ್ಷೇತ್ರ ಸಂವಹನ (NFC) ಟ್ಯಾಗ್‌ಗಳು, ಕಾರ್ಡ್‌ಗಳು, ಮತ್ತು ಓದುಗರನ್ನು ಅಪ್ಲಿಕೇಶನ್‌ ಅನುಮತಿಸುತ್ತದೆ.",
        "permdesc_persistentActivity": "ಸ್ಮರಣೆಯಲ್ಲಿ ನಿರಂತರವಾಗಿ ತನ್ನದೇ ಭಾಗಗಳನ್ನು ಮಾಡಲು ಅಪ್ಲಿಕೇಶನ್‍‍ಗೆ ಅವಕಾಶ ಮಾಡಿಕೊಡುತ್ತದೆ. ಇದು ಟ್ಯಾಬ್ಲೆಟ್ ಕಾರ್ಯವನ್ನು ನಿಧಾನಗೊಳಿಸುವುದರ ಮೂಲಕ ಇತರ ಅಪ್ಲಿಕೇಶನ್‍‍ಗಳಿಗೆ ಲಭ್ಯವಿರುವ ಸ್ಮರಣೆಯನ್ನು ಮಿತಿಗೊಳಿಸುತ್ತದೆ.",
        "permdesc_postNotification": "ಅಧಿಸೂಚನೆಗಳನ್ನು ತೋರಿಸಲು ಆ್ಯಪ್‌ಗೆ ಅನುಮತಿಸುತ್ತದೆ",
        "permdesc_preferredPaymentInfo": "ನೋಂದಾಯಿತ ಅಪ್ಲಿಕೇಶನ್ ಗುರುತಿಸುವಿಕೆಗಳು ಮತ್ತು ಮಾರ್ಗ ಗಮ್ಯಸ್ಥಾನಗಳಂತಹ ಆದ್ಯತೆಯ NFC ಪಾವತಿ ಸೇವೆಗಳ ಬಗ್ಗೆ ಮಾಹಿತಿಯನ್ನು ಪಡೆಯಲು ಅಪ್ಲಿಕೇಶನ್‌ಗೆ ಅನುಮತಿಸುತ್ತದೆ.",
        "permdesc_processOutgoingCalls": "ಬೇರೊಂದು ಸಂಖ್ಯೆಗೆ ಕರೆಯನ್ನು ಮರುನಿರ್ದೇಶಿಸಲು ಆಯ್ಕೆಯ ಜೊತೆಗೆ ಹೊರ ಹೋಗುವ ಕರೆಯ ಸಮಯದಲ್ಲಿ ಡಯಲ್‌ ಮಾಡಿದ ಸಂಖ್ಯೆಯನ್ನು ನೋಡಲು ಅಪ್ಲಿಕೇಶನ್‌‌ಗೆ ಅವಕಾಶ ನೀಡುತ್ತದೆ.",
        "permdesc_queryAllPackages": "ಇನ್‌ಸ್ಟಾಲ್ ಮಾಡಿದ ಎಲ್ಲಾ ಪ್ಯಾಕೇಜ್‌ಗಳನ್ನು ವೀಕ್ಷಿಸಲು ಆ್ಯಪ್‌ಗೆ ಅನುಮತಿಸುತ್ತದೆ.",
        "permdesc_readBasicPhoneState": "ಸಾಧನದ ಮೂಲ ಟೆಲಿಫೋನ್ ವೈಶಿಷ್ಟ್ಯಗಳನ್ನು ಪ್ರವೇಶಿಸಲು ಆ್ಯಪ್‌ಗೆ ಅನುಮತಿಸುತ್ತದೆ.",
        "permdesc_readCalendar": "ಈ ಅಪ್ಲಿಕೇಶನ್ ನಿಮ್ಮ ಟ್ಯಾಬ್ಲೆಟ್‌ನಲ್ಲಿ ಸಂಗ್ರಹವಾಗಿರುವ ಎಲ್ಲಾ ಕ್ಯಾಲೆಂಡರ್ ಈವೆಂಟ್‌ಗಳನ್ನು ಓದಬಹುದು ಮತ್ತು ನಿಮ್ಮ ಕ್ಯಾಲೆಂಡರ್ ಡೇಟಾವನ್ನು ಹಂಚಿಕೊಳ್ಳಬಹುದು ಅಥವಾ ಉಳಿಸಬಹುದು.",
        "permdesc_readCallLog": "ಈ ಅಪ್ಲಿಕೇಶನ್ ನಿಮ್ಮ ಕರೆಯ ಇತಿಹಾಸ ಓದಬಹುದು.",
        "permdesc_readCellBroadcasts": "ನಿಮ್ಮ ಸಾಧನದಿಂದ ಸ್ವೀಕರಿಸಿದ ಸೆಲ್ ಪ್ರಸಾರ ಸಂದೇಶಗಳನ್ನು ರೀಡ್ ಮಾಡಲು ಅಪ್ಲಿಕೇಶನ್‌‌ಗೆ ಅನುಮತಿಸುತ್ತದೆ. ಸೆಲ್ ಪ್ರಸಾರ ಎಚ್ಚರಿಕೆಗಳನ್ನು ತುರ್ತು ಸಂದರ್ಭಗಳಲ್ಲಿ ನಿಮಗೆ ಎಚ್ಚರಿಸುವ ಸಲುವಾಗಿ ಕೆಲವು ಸ್ಥಳಗಳಲ್ಲಿ ವಿತರಿಸಲಾಗುತ್ತದೆ. ದುರುದ್ದೇಶಪೂರಿತ ಅಪ್ಲಿಕೇಶನ್‌‌‌ಗಳು ತುರ್ತು ಸೆಲ್ ಪ್ರಸಾರವನ್ನು ಸ್ವೀಕರಿಸುವಾಗ, ನಿಮ್ಮ ಸಾಧನದ ಕಾರ್ಯಕ್ಷಮತೆ ಇಲ್ಲವೇ ಕಾರ್ಯಾಚರಣೆಯಲ್ಲಿ ಹಸ್ತಕ್ಷೇಪ ಮಾಡಬಹುದು.",
        "permdesc_readContacts": "ನಿಮ್ಮ ಫೋನ್‌ನಲ್ಲಿ ಸಂಗ್ರಹಿಸಲಾಗಿರುವ ನಿಮ್ಮ ಸಂಪರ್ಕಗಳ ಕುರಿತಾದ ಡೇಟಾವನ್ನು ರೀಡ್ ಮಾಡಲು ಆ್ಯಪ್‌ಗೆ ಅನುವು ಮಾಡಿಕೊಡುತ್ತದೆ. ಸಂಪರ್ಕಗಳನ್ನು ರಚಿಸಿದ ನಿಮ್ಮ ಫೋನ್‌ನಲ್ಲಿನ ಖಾತೆಗಳಿಗೂ ಸಹ ಆ್ಯಪ್‌ಗಳು ಪ್ರವೇಶ ಹೊಂದಿರುತ್ತವೆ. ಇದರಲ್ಲಿ ನೀವು ಇನ್‌ಸ್ಟಾಲ್ ಮಾಡಿದ ಆ್ಯಪ್‌ಗಳು ರಚಿಸಿದ ಖಾತೆಗಳನ್ನು ಒಳಗೊಂಡಿರಬಹುದು. ಈ ಅನುಮತಿಯು ನಿಮ್ಮ ಸಂಪರ್ಕ ಡೇಟಾವನ್ನು ಉಳಿಸಲು ಅಪ್ಲಿಕೇಶನ್‌ಗಳನ್ನು ಅನುಮತಿಸುತ್ತದೆ, ಆದರೆ ದುರುದ್ದೇಶಪೂರಿತ ಆ್ಯಪ್‌ಗಳಿಗೆ ನಿಮ್ಮ ಗಮನಕ್ಕೆ ಬಾರದೇ ಸಂಪರ್ಕ ಡೇಟಾವನ್ನು ಹಂಚಿಕೊಳ್ಳಬಹುದು.",
        "permdesc_readHistoryBookmarks": "ಬ್ರೌಸರ್‍ ಭೇಟಿ ನೀಡಿರುವಂತಹ ಎಲ್ಲಾ URL ಗಳ ಇತಿಹಾಸವನ್ನು ಮತ್ತು ಬ್ರೌಸರ್‍‍ನ ಎಲ್ಲಾ ಬುಕ್‍‍ಮಾರ್ಕ್‌ಗಳನ್ನು ರೀಡ್ ಮಾಡಲು ಅಪ್ಲಿಕೇಶನ್‍‍ಗೆ ಅವಕಾಶ ಮಾಡಿಕೊಡುತ್ತದೆ. ಗಮನಿಸಿ: ಈ ಅನುಮತಿಯನ್ನು ಮೂರನೇ-ವ್ಯಕ್ತಿ-ಬ್ರೌಸರ್‍‍ಗಳು ಅಥವಾ ವೆಬ್‍ ಬ್ರೌಸಿಂಗ್ ಸಾಮರ್ಥ್ಯಗಳನ್ನು ಹೊಂದಿರುವ ಇತರ ಅಪ್ಲಿಕೇಶನ್‍‍ಗಳ ಮೂಲಕ ಜಾರಿಗೊಳಿಸಲಾಗುವುದಿಲ್ಲ.",
        "permdesc_readInstallSessions": "ಸ್ಥಾಪಿತ ಸೆಷನ್‌ಗಳನ್ನು ಓದಲು ಅಪ್ಲಿಕೇಶನ್‌ ಅನ್ನು ಅನುಮತಿಸುತ್ತದೆ. ಸಕ್ರಿಯ ಪ್ಯಾಕೇಜ್‌ ಸ್ಥಾಪನೆಗಳ ಕುರಿತು ವಿವರಣೆಗಳನ್ನು ವೀಕ್ಷಿಸಲು ಇದು ಅನುಮತಿಸುತ್ತದೆ.",
        "permdesc_readMediaAudio": "ನಿಮ್ಮ ಹಂಚಿಕೊಂಡ ಸಂಗ್ರಹಣೆಯಿಂದ ಆಡಿಯೋ ಫೈಲ್‌ಗಳನ್ನು ಓದಲು ಆ್ಯಪ್‌ಗೆ ಅನುಮತಿಸುತ್ತದೆ.",
        "permdesc_readMediaImages": "ನಿಮ್ಮ ಹಂಚಿಕೊಂಡ ಸಂಗ್ರಹಣೆಯಿಂದ ಚಿತ್ರದ ಫೈಲ್‌ಗಳನ್ನು ಓದಲು ಆ್ಯಪ್‌ಗೆ ಅನುಮತಿಸುತ್ತದೆ.",
        "permdesc_readMediaVideo": "ನಿಮ್ಮ ಹಂಚಿಕೊಂಡ ಸಂಗ್ರಹಣೆಯಿಂದ ವೀಡಿಯೊ ಫೈಲ್‌ಗಳನ್ನು ಓದಲು ಆ್ಯಪ್‌ಗೆ ಅನುಮತಿಸುತ್ತದೆ.",
        "permdesc_readNetworkUsageHistory": "ನಿರ್ದಿಷ್ಟ ನೆಟ್‌ವರ್ಕ್‌ಗಳು ಮತ್ತು ಅಪ್ಲಿಕೇಶನ್‌ಗಳಿಗೆ ಐತಿಹಾಸಿಕ ನೆಟ್‌ವರ್ಕ್‌ನ ಬಳಕೆಯನ್ನು ಓದಲು ಅಪ್ಲಿಕೇಶನ್‌ಗೆ ಅನುಮತಿಸುತ್ತದೆ.",
        "permdesc_readPhoneNumbers": "ಸಾಧನದ ಫೋನ್ ಸಂಖ್ಯೆಗಳಿಗೆ ಪ್ರವೇಶ ಪಡೆಯಲು ಅಪ್ಲಿಕೇಶನ್‌ಗೆ ಅನುಮತಿ ನೀಡುತ್ತದೆ.",
        "permdesc_readPhoneState": "ಸಾಧನದ ಫೋನ್ ವೈಶಿಷ್ಟ್ಯಗಳನ್ನು ಪ್ರವೇಶಿಸಲು ಅಪ್ಲಿಕೇಶನ್‍‍ಗೆ ಅವಕಾಶ ಮಾಡಿಕೊಡುತ್ತದೆ. ಈ ಅನುಮತಿಯು ಫೋನ್ ಸಂಖ್ಯೆ ಮತ್ತು ಸಾಧನದ ID ಗಳನ್ನು ನಿರ್ಧರಿಸಲು, ಕರೆಯು ಸಕ್ರಿಯವಾಗಿದೆಯೇ ಮತ್ತು ಕರೆಯ ಮೂಲಕ ರಿಮೋಟ್ ಸಂಖ್ಯೆಯು ಸಂಪರ್ಕಗೊಂಡಿವೆಯೇ ಎಂಬುದನ್ನೂ ನಿರ್ಧರಿಸಲು ಅಪ್ಲಿಕೇಶನ್‌ಗೆ ಅವಕಾಶ ಕಲ್ಪಿಸುತ್ತದೆ.",
        "permdesc_readSms": "ಈ ಅಪ್ಲಿಕೇಶನ್ ನಿಮ್ಮ ಟ್ಯಾಬ್ಲೆಟ್‌ನಲ್ಲಿ ಸಂಗ್ರಹವಾಗಿರುವ ಎಲ್ಲಾ ಎಸ್ಎಂಎಸ್ (ಪಠ್ಯ) ಸಂದೇಶಗಳನ್ನು ಓದಬಹುದು.",
        "permdesc_readSyncSettings": "ಒಂದು ಖಾತೆಯ ಸಿಂಕ್ ಸೆಟ್ಟಿಂಗ್‍‍ಗಳನ್ನು ಓದಲು ಅಪ್ಲಿಕೇಶನ್‍‍ಗೆ ಅವಕಾಶ ನೀಡುತ್ತದೆ. ಉದಾಹರಣೆಗೆ, ಖಾತೆಯೊಂದಿಗೆ ಜನರ ಅಪ್ಲಿಕೇಶನ್ ಸಿಂಕ್ ಮಾಡಲಾಗಿದೆಯೇ ಎಂಬುದನ್ನು ಇದು ನಿರ್ಧರಿಸಬಹುದು.",
        "permdesc_readSyncStats": "ಸಿಂಕ್ ಈವೆಂಟ್‍‍ಗಳ ಇತಿಹಾಸ ಮತ್ತು ಎಷ್ಟು ಪ್ರಮಾಣದ ಡೇಟಾವನ್ನು ಸಿಂಕ್‍ ಮಾಡಲಾಗಿದೆ ಎಂಬುದು ಸೇರಿದಂತೆ, ಒಂದು ಖಾತೆಗಾಗಿ ಸಿಂಕ್ ಅಂಕಿಅಂಶಗಳನ್ನು ಓದಲು ಅಪ್ಲಿಕೇಶನ್‍‍ಗೆ ಅವಕಾಶ ನೀಡುತ್ತದೆ.",
        "permdesc_receiveBootCompleted": "ಸಿಸ್ಟಂ ಬೂಟ್ ಮಾಡುವುದನ್ನು ಮುಗಿಸಿದ ನಂತರ ಅಪ್ಲಿಕೇಶನ್ ಅನ್ನು ತಾನಾಗಿಯೇ ಪ್ರಾರಂಭಿಸಲು ಅನುಮತಿಸುತ್ತದೆ. ಈ ಕಾರಣದಿಂದಾಗಿ ಟ್ಯಾಬ್ಲೆಟ್ ಪ್ರಾರಂಭಿಸಲು ಇದಕ್ಕೆ ಹೆಚ್ಚು ಸಮಯ ತೆಗೆದುಕೊಳ್ಳಬಹುದು ಮತ್ತು ಯಾವಾಗಲೂ ರನ್ ಆಗುವ ಮೂಲಕ ಒಟ್ಟು ಮೊತ್ತ ಟ್ಯಾಬ್ಲೆಟ್‌ನ ವೇಗವನ್ನು ಕಡಿಮೆ ಮಾಡಲು ಅನುಮತಿಸುತ್ತದೆ.",
        "permdesc_receiveMms": "MMS ಸಂದೇಶಗಳನ್ನು ಸ್ವೀಕರಿಸಲು ಮತ್ತು ಪ್ರಕ್ರಿಯೆಗೊಳಿಸಲು ಅಪ್ಲಿಕೇಶನ್‍‍ಗೆ ಅವಕಾಶ ಮಾಡಿಕೊಡುತ್ತದೆ. ಇದರರ್ಥ, ನಿಮ್ಮ ಸಾಧನಕ್ಕೆ ಕಳುಹಿಸಲಾಗಿರುವ ಸಂದೇಶಗಳನ್ನು ನಿಮಗೆ ತೋರಿಸದೆಯೇ, ಅಪ್ಲಿಕೇಶನ್ ಅವುಗಳನ್ನು ಮಾನಿಟರ್ ಮಾಡಬಹುದು ಅಥವಾ ಅಳಿಸಬಹುದು.",
        "permdesc_receiveSms": "SMS ಸಂದೇಶಗಳನ್ನು ಸ್ವೀಕರಿಸಲು ಮತ್ತು ಪ್ರಕ್ರಿಯೆಗೊಳಿಸಲು ಅಪ್ಲಿಕೇಶನ್‍‍ಗೆ ಅವಕಾಶ ಮಾಡಿಕೊಡುತ್ತದೆ. ಇದರರ್ಥ, ನಿಮ್ಮ ಸಾಧನಕ್ಕೆ ಕಳುಹಿಸಲಾಗಿರುವ ಸಂದೇಶಗಳನ್ನು ನಿಮಗೆ ತೋರಿಸದೆಯೇ, ಅಪ್ಲಿಕೇಶನ್ ಅವುಗಳನ್ನು ಮಾನಿಟರ್ ಮಾಡಬಹುದು ಅಥವಾ ಅಳಿಸಬಹುದು.",
        "permdesc_receiveWapPush": "WAP ಸಂದೇಶಗಳನ್ನು ಸ್ವೀಕರಿಸಲು ಮತ್ತು ಪ್ರಕ್ರಿಯೆಗೊಳಿಸಲು ಅಪ್ಲಿಕೇಶನ್‍‍ಗೆ ಅವಕಾಶ ಮಾಡಿಕೊಡುತ್ತದೆ. ಈ ಅನುಮತಿಯು, ನಿಮಗೆ ಕಳುಹಿಸಲಾಗಿರುವ ಸಂದೇಶಗಳನ್ನು ನಿಮಗೆ ತೋರಿಸದೆಯೇ, ಅವುಗಳನ್ನು ಮಾನಿಟರ್ ಮಾಡುವ ಅಥವಾ ಅಳಿಸುವ ಸಾಮರ್ಥ್ಯವನ್ನು ಒಳಗೊಂಡಿರುತ್ತದೆ.",
        "permdesc_recordAudio": "ಆ್ಯಪ್ ಬಳಕೆಯಲ್ಲಿರುವಾಗ ಈ ಆ್ಯಪ್ ಮೈಕ್ರೊಫೋನ್ ಬಳಸಿ ಆಡಿಯೊವನ್ನು ರೆಕಾರ್ಡ್ ಮಾಡಬಹುದು.",
        "permdesc_recordBackgroundAudio": "ಈ ಆ್ಯಪ್ ಮೈಕ್ರೋಫೋನ್ ಬಳಸುವ ಮೂಲಕ ಯಾವುದೇ ಸಮಯದಲ್ಲಾದರೂ ಆಡಿಯೋ ರೆಕಾರ್ಡ್ ಮಾಡಬಹುದು.",
        "permdesc_register_call_provider": "ಹೊಸ ಟೆಲಿಕಾಂ ಸಂಪರ್ಕಗಳನ್ನು ನೋಂದಣಿ ಮಾಡಲು ಅಪ್ಲಿಕೇಶನ್ ಅವಕಾಶ ಮಾಡಿಕೊಡುತ್ತದೆ.",
        "permdesc_register_sim_subscription": "ಅಪ್ಲಿಕೇಶನ್‌ಗೆ ಹೊಸ ಟೆಲಿಕಾಮ್ ಸಿಮ್‌ ಸಂಪರ್ಕಗಳನ್ನು ನೋಂದಾಯಿಸಲು ಅನುಮತಿಸುತ್ತದೆ.",
        "permdesc_removeDrmCertificates": "DRM ಪ್ರಮಾಣಪತ್ರಗಳನ್ನು ತೆಗೆದುಹಾಕಲು ಅಪ್ಲಿಕೇಶನ್‌ಗೆ ಅನುಮತಿಸುತ್ತದೆ. ಸಾಮಾನ್ಯ ಅಪ್ಲಿಕೇಶನ್‌ಗಳಿಗೆ ಎಂದಿಗೂ ಅಗತ್ಯವಿರುವುದಿಲ್ಲ.",
        "permdesc_reorderTasks": "ಮುನ್ನೆಲೆ ಮತ್ತು ಹಿನ್ನಲೆಗೆ ಕಾರ್ಯಗಳನ್ನು ಸರಿಸಲು ಅಪ್ಲಿಕೇಶನ್‍‍ಗೆ ಅನುಮತಿಸುತ್ತದೆ. ನಿಮ್ಮ ಇನ್‍‍ಪುಟ್ ಇಲ್ಲದೆಯೇ, ಅಪ್ಲಿಕೇಶನ್ ಈ ಕಾರ್ಯವನ್ನು ಮಾಡಬಹುದು.",
        "permdesc_requestDeletePackages": "ಪ್ಯಾಕೇಜ್‌ಗಳನ್ನು ಅಳಿಸುವುದಕ್ಕಾಗಿ ವಿನಂತಿ ಮಾಡಲು ಅಪ್ಲಿಕೇಶನ್‌ಗೆ ಅನುಮತಿಸುತ್ತದೆ.",
        "permdesc_requestIgnoreBatteryOptimizations": "ಈ ಅಪ್ಲಿಕೇಶನ್‌ಗೆ ಬ್ಯಾಟರಿ ಆಪ್ಟಿಮೈಸೇಶನ್‌ಗಳನ್ನು ಕಡೆಗಣಿಸುವುದಕ್ಕೆ ಅನುಮತಿಯನ್ನು ಕೇಳಲು ಅಪ್ಲಿಕೇಶನ್‌ ಅನ್ನು ಅನುಮತಿಸುತ್ತದೆ.",
        "permdesc_requestInstallPackages": "ಪ್ಯಾಕೇಜ್‌ಗಳ ಸ್ಥಾಪನೆಯನ್ನು ವಿನಂತಿಸಲು ಅಪ್ಲಿಕೇಶನ್‌ಗೆ ಅನುಮತಿಸುತ್ತದೆ.",
        "permdesc_requestPasswordComplexity": "ಆ್ಯಪ್‌ಗೆ ಸ್ಕ್ರೀನ್ ಲಾಕ್ ಸಂಕೀರ್ಣತೆ ಮಟ್ಟವನ್ನು (ಅಧಿಕ, ಮಧ್ಯಮ, ಕಡಿಮೆ ಅಥವಾ ಯಾವುದೂ ಅಲ್ಲ) ತಿಳಿದುಕೊಳ್ಳಲು ಅನುಮತಿಸುತ್ತದೆ, ಅದು ಉದ್ದದ ಸಂಭವನೀಯ ಶ್ರೇಣಿ ಮತ್ತು ಸ್ಕ್ರೀನ್ ಲಾಕ್‌ನ ವಿಧವನ್ನು ಸೂಚಿಸುತ್ತದೆ. ಬಳಕೆದಾರರು ನಿರ್ದಿಷ್ಟ ಹಂತದವರೆಗೆ ಸ್ಕ್ರೀನ್ ಲಾಕ್ ಅನ್ನು ಅಪ್‌ಡೇಟ್ ಮಾಡಬಹುದು, ಆದರೆ ಅವರು ಅದನ್ನು ನಿರ್ಲಕ್ಷಿಸಬಹುದು ಮತ್ತು ಅದರಿಂದ ಹೊರಬರಬಹುದು ಎಂಬುದನ್ನು ಸಹ ಆ್ಯಪ್ ಬಳಕೆದಾರರಿಗೆ ಸೂಚಿಸುತ್ತದೆ ಸ್ಕ್ರೀನ್ ಲಾಕ್ ಅನ್ನು ಪಠ್ಯದ ರೂಪದಲ್ಲಿ ಸಂಗ್ರಹಿಸಲಾಗಿರುವುದಿಲ್ಲ, ಇದರಿಂದಾಗಿ ಆ್ಯಪ್‌ಗೆ ಸರಿಯಾದ ಪಾಸ್‌ವರ್ಡ್ ಗೊತ್ತಿರುವುದಿಲ್ಲ ಎಂಬುದನ್ನು ಗಮನಿಸಿ.",
        "permdesc_route_media_output": "ಇತರ ಬಾಹ್ಯ ಸಾಧನಗಳಿಗೆ ಮೀಡಿಯಾ ಔಟ್‍‍ಪುಟ್ ಅನ್ನು ರೂಟ್ ಮಾಡಲು ಅಪ್ಲಿಕೇಶನ್‍‍ಗೆ ಅವಕಾಶ ನೀಡುತ್ತದೆ.",
        "permdesc_runInBackground": "ಈ ಅಪ್ಲಿಕೇಶನ್ ಹಿನ್ನಲೆಯಲ್ಲಿ ರನ್ ಆಗಬಹುದು. ಇದು ಬ್ಯಾಟರಿಯನ್ನು ವೇಗವಾಗಿ ಬರಿದಾಗಿಸಬಹುದು.",
        "permdesc_sdcardRead": "ನಿಮ್ಮ ಹಂಚಿಕೊಂಡ ಸಂಗ್ರಹಣೆಯ ವಿಷಯಗಳನ್ನು ಓದಲು ಆ್ಯಪ್‌ಗೆ ಅನುಮತಿಸುತ್ತದೆ.",
        "permdesc_sdcardWrite": "ನಿಮ್ಮ ಹಂಚಿಕೊಂಡ ಸಂಗ್ರಹಣೆಯ ವಿಷಯಗಳನ್ನು ಬರೆಯಲು ಆ್ಯಪ್‌ಗೆ ಅನುಮತಿಸುತ್ತದೆ.",
        "permdesc_sendSms": "SMS ಸಂದೇಶಗಳನ್ನು ಕಳುಹಿಸಲು ಅಪ್ಲಿಕೇಶನ್‍‍ಗೆ ಅವಕಾಶ ನೀಡುತ್ತದೆ. ಇದು ಅನಿರೀಕ್ಷಿತ ವೆಚ್ಚಗಳಿಗೆ ಕಾರಣವಾಗಬಹುದು. ದುರುದ್ದೇಶಪೂರಿತ ಅಪ್ಲಿಕೇಶನ್‍‍ಗಳು ನಿಮ್ಮ ದೃಢೀಕರಣವಿಲ್ಲದೆಯೇ ಸಂದೇಶಗಳನ್ನು ಕಳುಹಿಸುವ ಮೂಲಕ ನಿಮ್ಮ ಹಣವನ್ನು ವ್ಯಯಿಸಬಹುದು.",
        "permdesc_setAlarm": "ಸ್ಥಾಪಿಸಲಾದ ಅಲಾರಮ್ ಗಡಿಯಾರ ಅಪ್ಲಿಕೇಶನ್‌ನಲ್ಲಿ ಅಲಾರಮ್ ಹೊಂದಿಸಲು ಅಪ್ಲಿಕೇಶನ್‌ಗೆ ಅನುಮತಿಸುತ್ತದೆ. ಕೆಲವು ಅಲಾರಮ್ ಗಡಿಯಾರ ಅಪ್ಲಿಕೇಶನ್‌ಗಳು ಈ ವೈಶಿಷ್ಟ್ಯವನ್ನು ಕಾರ್ಯಗತಗೊಳಿಸದಿರಬಹುದು.",
        "permdesc_setInputCalibration": "ಸ್ಪರ್ಶದ ಪರದೆಯ ಮಾಪನಾಂಕ ನಿರ್ಣಯ ಪ್ಯಾರಾಮೀಟರ್‌ಗಳನ್ನು ಮಾರ್ಪಡಿಸಲು ಅಪ್ಲಿಕೇಶನ್‌ಗೆ ಅನುಮತಿಸುತ್ತದೆ. ಸಾಮಾನ್ಯ ಅಪ್ಲಿಕೇಶನ್‌ಗಳಿಗೆ ಎಂದಿಗೂ ಅಗತ್ಯವಿರುವುದಿಲ್ಲ.",
        "permdesc_setTimeZone": "ಟ್ಯಾಬ್ಲೆಟ್‌‌ನ ಸಮಯ ವಲಯವನ್ನು ಬದಲಾಯಿಸಲು ಅಪ್ಲಿಕೇಶನ್‌ಗೆ ಅನುಮತಿಸುತ್ತದೆ.",
        "permdesc_setWallpaper": "ಸಿಸ್ಟಂ ವಾಲ್‌ಪೇಪರ್‌ ಹೊಂದಿಸಲು ಅಪ್ಲಿಕೇಶನ್‌ಗೆ ಅನುಮತಿಸುತ್ತದೆ.",
        "permdesc_setWallpaperHints": "ಸಿಸ್ಟಂ ವಾಲ್‌ಪೇಪರ್‌‌ ಗಾತ್ರದ ಸುಳಿವುಗಳನ್ನು ಹೊಂದಿಸಲು ಅಪ್ಲಿಕೇಶನ್‌ಗೆ ಅನುಮತಿಸುತ್ತದೆ.",
        "permdesc_sim_communication": "ಸಿಮ್‌ ಗೆ ಆದೇಶಗಳನ್ನು ಕಳುಹಿಸಲು ಅಪ್ಲಿಕೇಶನ್‌ಗೆ ಅನುಮತಿಸುತ್ತದೆ. ಇದು ತುಂಬಾ ಅಪಾಯಕಾರಿ.",
        "permdesc_startReviewPermissionDecisions": "ಅನುಮತಿಯ ನಿರ್ಧಾರಗಳನ್ನು ಪರಿಶೀಲಿಸುವುದಕ್ಕಾಗಿ ಸ್ಕ್ರೀನ್ ಅನ್ನು ಪ್ರಾರಂಭಿಸಲು ಬಳಕೆದಾರರನ್ನು ಅನುಮತಿಸುತ್ತದೆ. ಸಾಮಾನ್ಯ ಆ್ಯಪ್‌ಗಳಿಗೆ ಎಂದಿಗೂ ಅಗತ್ಯವಿರುವುದಿಲ್ಲ.",
        "permdesc_startViewAppFeatures": "ಆ್ಯಪ್‌ನ ವೈಶಿಷ್ಟ್ಯಗಳ ಮಾಹಿತಿಯನ್ನು ವೀಕ್ಷಿಸಲು ಬಳಕೆದಾರರನ್ನು ಅನುಮತಿಸುತ್ತದೆ.",
        "permdesc_startViewPermissionUsage": "ಆ್ಯಪ್‌ಗಾಗಿ ಅನುಮತಿ ಬಳಕೆಯನ್ನು ಪ್ರಾರಂಭಿಸಲು ಹೊಂದಿರುವವರಿಗೆ ಅನುಮತಿಸುತ್ತದೆ. ಸಾಮಾನ್ಯ ಆ್ಯಪ್‌ಗಳಿಗೆ ಎಂದಿಗೂ ಅಗತ್ಯವಿರುವುದಿಲ್ಲ.",
        "permdesc_statusBar": "ಸ್ಥಿತಿ ಪಟ್ಟಿಯನ್ನು ನಿಷ್ಕ್ರಿಯಗೊಳಿಸಲು ಅಥವಾ ಸೇರಿಸಲು ಮತ್ತು ಸಿಸ್ಟಂ ಐಕಾನ್‌ಗಳನ್ನು ತೆಗೆದುಹಾಕಲು ಅಪ್ಲಿಕೇಶನ್‌ಗೆ ಅವಕಾಶ ನೀಡುತ್ತದೆ.",
        "permdesc_statusBarService": "ಅಪ್ಲಿಕೇಶನ್ ಅನ್ನು ಸ್ಥಿತಿ ಪಟ್ಟಿಯಾಗಿ ಅನುಮತಿಸುತ್ತದೆ.",
        "permdesc_subscribedFeedsRead": "ಪ್ರಸ್ತುತ ಸಿಂಕ್‌ ಮಾಡಲಾದ ಫೀಡ್‌ಗಳ ಕುರಿತು ವಿವರಗಳನ್ನು ಪಡೆಯಲು ಅಪ್ಲಿಕೇಶನ್‌ಗೆ ಅನುಮತಿಸುತ್ತದೆ.",
        "permdesc_systemAlertWindow": "ಈ ಅಪ್ಲಿಕೇಶನ್ ಇತರ ಅಪ್ಲಿಕೇಶನ್‌ಗಳ ಅಥವಾ ಪರದೆಯ ಇತರೆ ಭಾಗಗಳ ಮೇಲೆ ಕಾಣಿಸಿಕೊಳ್ಳಬಹುದು. ಇದು ಸಾಮಾನ್ಯ ಅಪ್ಲಿಕೇಶನ್ ಬಳಕೆಯ ಮೂಲಕ ಹಸ್ತಕ್ಷೇಪ ಮಾಡಬಹುದು ಮತ್ತು ಇತರೆ ಅಪ್ಲಿಕೇಶನ್ ಗೋಚರಿಸುವ ರೀತಿಯಲ್ಲಿ ಬದಲಾಯಿಸಬಹುದು.",
        "permdesc_systemCamera": "ಈ ವಿಶೇಷ ಅಥವಾ ಸಿಸ್ಟಂ ಆ್ಯಪ್, ಯಾವುದೇ ಸಮಯದಲ್ಲಾದರೂ ಸಿಸ್ಟಂ ಕ್ಯಾಮರಾವನ್ನು ಬಳಸಿಕೊಂಡು ಫೋಟೋಗಳನ್ನು ತೆಗೆದುಕೊಳ್ಳಬಹುದು ಮತ್ತು ವೀಡಿಯೋಗಳನ್ನು ರೆಕಾರ್ಡ್ ಮಾಡಬಹುದು. ಆ್ಯಪ್‌ಗೆ android.permission.CAMERA ಅನುಮತಿಯ ಅಗತ್ಯವಿರುತ್ತದೆ",
        "permdesc_transmitIr": "ಟ್ಯಾಬ್ಲೆಟ್‌ನ ಇನ್‌ಫ್ರಾರೆಡ್ ಸಂವಾಹಕವನ್ನು ಬಳಸಲು ಅಪ್ಲಿಕೇಶನ್‌ಗೆ ಅನುಮತಿಸುತ್ತದೆ.",
        "permdesc_uninstall_shortcut": "ಬಳಕೆದಾರರ ಮಧ್ಯಸ್ಥಿಕೆ ಇಲ್ಲದೆಯೇ ಹೋಮ್‌ಸ್ಕ್ರೀನ್ ಶಾರ್ಟ್‌ಕಟ್‌ಗಳನ್ನು ತೆಗೆದುಹಾಕಲು ಅಪ್ಲಿಕೇಶನ್‌ಗೆ ಅನುಮತಿಸುತ್ತದೆ.",
        "permdesc_useBiometric": "ಪ್ರಮಾಣೀಕರಣಕ್ಕಾಗಿ ಬಯೋಮೆಟ್ರಿಕ್ ಹಾರ್ಡ್‌ವೇರ್ ಬಳಸಲು ಅಪ್ಲಿಕೇಶನ್‌ಗೆ ಅನುಮತಿಸುತ್ತದೆ",
        "permdesc_useDataInBackground": "ಈ ಅಪ್ಲಿಕೇಶನ್ ಹಿನ್ನಲೆಯಲ್ಲಿ ಡೇಟಾವನ್ನು ಬಳಸಬಹುದು. ಇದರಿಂದ ಡೇಟಾ ಬಳಕೆ ಹೆಚ್ಚಾಗಬಹುದು.",
        "permdesc_useFaceAuthentication": "ಪ್ರಮಾಣೀಕರಣಕ್ಕಾಗಿ ಫೇಸ್ ಅನ್‌ಲಾಕ್ ಹಾರ್ಡ್‌ವೇರ್ ಬಳಸಲು ಅಪ್ಲಿಕೇಶನ್‌ಗೆ ಅನುಮತಿಸುತ್ತದೆ",
        "permdesc_useFingerprint": "ಪ್ರಮಾಣೀಕರಣಕ್ಕಾಗಿ ಫಿಂಗರ್‌ಪ್ರಿಂಟ್ ಹಾರ್ಡ್‌ವೇರ್ ಬಳಸಲು ಆ್ಯಪ್‍‍ಗೆ ಅನುಮತಿಸುತ್ತದೆ",
        "permdesc_use_sip": "ಎಸ್‌ಐಪಿ ಕರೆಗಳನ್ನು ಮಾಡಲು ಮತ್ತು ಸ್ವೀಕರಿಸಲು ಅಪ್ಲಿಕೇಶನ್‌‌ಗೆ ಅನುಮತಿಸುತ್ತದೆ.",
        "permdesc_uwb_ranging": "ಸಮೀಪದಲ್ಲಿರುವ ಅಲ್ಟ್ರಾ-ವೈಡ್‌ಬ್ಯಾಂಡ್ ಸಾಧನಗಳ ನಡುವೆ ಸಂಬಂಧಿತ ಸ್ಥಾನವನ್ನು ನಿರ್ಧರಿಸಲು ಆ್ಯಪ್‌ಗೆ ಅನುಮತಿಸಿ",
        "permdesc_vibrate": "ವೈಬ್ರೇಟರ್‌ ನಿಯಂತ್ರಿಸಲು ಅಪ್ಲಿಕೇಶನ್‌ಗೆ ಅನುಮತಿಸುತ್ತದೆ.",
        "permdesc_vibrator_state": "ವೈಬ್ರೇಟರ್ ಸ್ಥಿತಿಯನ್ನು ಪ್ರವೇಶಿಸಲು ಆ್ಯಪ್‌ಗೆ ಅನುಮತಿಸುತ್ತದೆ.",
        "permdesc_videoWrite": "ನಿಮ್ಮ ವೀಡಿಯೊ ಸಂಗ್ರಹಣೆಯನ್ನು ಮಾರ್ಪಡಿಸಲು ಆ್ಯಪ್‌ಗೆ ಅನುಮತಿಸುತ್ತದೆ.",
        "permdesc_wakeLock": "ಕಾರ್ ಸ್ಕ್ರೀನ್ ಅನ್ನು ಆನ್‌ನಲ್ಲೇ ಇರಿಸಲು ಆ್ಯಪ್‌ಗೆ ಅನುಮತಿಸುತ್ತದೆ.",
        "permdesc_writeCalendar": "ಈ ಅಪ್ಲಿಕೇಶನ್ ನಿಮ್ಮ ಟ್ಯಾಬ್ಲೆಟ್‌ನಲ್ಲಿ ಕ್ಯಾಲೆಂಡರ್ ಈವೆಂಟ್‌ಗಳನ್ನು ಸೇರಿಸಬಹುದು, ತೆಗೆದುಹಾಕಬಹುದು ಅಥವಾ ಬದಲಾಯಿಸಬಹುದು. ಈ ಅಪ್ಲಿಕೇಶನ್ ಕ್ಯಾಲೆಂಡರ್‌ನ ಮಾಲೀಕರಿಂದ ಬಂದಿರಬಹುದಾದ ಕಾಣಿಸಿಕೊಳ್ಳುವ ಸಂದೇಶಗಳನ್ನು ಕಳುಹಿಸಬಹುದು ಅಥವಾ ಅವರ ಮಾಲೀಕರಿಗೆ ತಿಳಿಸದಂತೆ ಘಟನೆಗಳು ಬದಲಾಯಿಸುವುದು.",
        "permdesc_writeCallLog": "ಒಳಬರುವ ಮತ್ತು ಹೊರಹೋಗುವ ಕರೆಗಳ ಕುರಿತ ಡೇಟಾ ಸೇರಿದಂತೆ, ನಿಮ್ಮ ಟ್ಯಾಬ್ಲೆಟ್‌ನ ಕರೆಯ ಲಾಗ್ ಅನ್ನು ಮಾರ್ಪಡಿಸಲು ಅಪ್ಲಿಕೇಶನ್‍‍ಗೆ ಅವಕಾಶ ನೀಡುತ್ತದೆ. ದುರುದ್ದೇಶಪೂರಿತ ಅಪ್ಲಿಕೇಶನ್‍‍ಗಳು ನಿಮ್ಮ ಕರೆಯ ಲಾಗ್‍ ಅನ್ನು ಅಳಿಸಲು ಅಥವಾ ಮಾರ್ಪಡಿಸಲು ಇದನ್ನು ಬಳಸಿಕೊಳ್ಳಬಹುದು.",
        "permdesc_writeContacts": "ನಿಮ್ಮ ಫೋನ್‍ನಲ್ಲಿ ಸಂಗ್ರಹಿಸಲಾಗಿರುವ ನಿಮ್ಮ ಸಂಪರ್ಕಗಳ ಕುರಿತಾದ ಡೇಟಾವನ್ನು ಮಾರ್ಪಡಿಸಲು ಆ್ಯಪ್‌ಗೆ ಅವಕಾಶ ನೀಡುತ್ತದೆ. ಈ ಅನುಮತಿಯು ಸಂಪರ್ಕ ಡೇಟಾವನ್ನು ಅಳಿಸಲು ಆ್ಯಪ್‌ಗಳಿಗೆ ಅನುಮತಿಸುತ್ತದೆ.",
        "permdesc_writeGeolocationPermissions": "ಬ್ರೌಸರ್‌ನ ಜಿಯೋಲೊಕೇಶನ್ ಅನುಮತಿಗಳನ್ನು ಮಾರ್ಪಡಿಸಲು ಅಪ್ಲಿಕೇಶನ್‌ಗೆ ಅನುಮತಿಸುತ್ತದೆ. ದುರುದ್ದೇಶಪೂರಿತ ಅಪ್ಲಿಕೇಶನ್‌ಗಳು ಅನಿರ್ಬಂಧಿತ ವೆಬ್ ಸೈಟ್‌ಗಳಿಗೆ ಸ್ಥಳ ಮಾಹಿತಿ ಕಳುಹಿಸುವುದನ್ನು ಅನುಮತಿಸಲು ಇದನ್ನು ಬಳಸಬಹುದು.",
        "permdesc_writeHistoryBookmarks": "ನಿಮ್ಮ ಟ್ಯಾಬ್ಲೆಟ್‌ನಲ್ಲಿ ಸಂಗ್ರಹಿಸಲಾಗಿರುವ ಬ್ರೌಸರ್‍‍ನ ಇತಿಹಾಸ ಅಥವಾ ಬುಕ್‌ಮಾರ್ಕ್ಗಳನ್ನು ಮಾರ್ಪಡಿಸಲು ಅಪ್ಲಿಕೇಶನ್‍‍ಗೆ ಅನುಮತಿಸುತ್ತದೆ. ಇದು ಬ್ರೌಸರ್‍‍ನ ಡೇಟಾವನ್ನು ಅಳಿಸಲು ಅಥವಾ ಮಾರ್ಪಡಿಸಲು ಅಪ್ಲಿಕೇಶನ್‍‍ಗೆ ಅವಕಾಶ ಕಲ್ಪಿಸಿಕೊಡಬಹುದು. ಗಮನಿಸಿ: ಈ ಅನುಮತಿಯನ್ನು ವೆಬ್ ಬ್ರೌಸಿಂಗ್ ಸಾಮರ್ಥ್ಯಗಳನ್ನು ಹೊಂದಿರುವ ಮೂರನೇ-ವ್ಯಕ್ತಿ ಬ್ರೌಸರ್‍‍ಗಳು ಅಥವಾ ಅಪ್ಲಿಕೇಶನ್‍‍ಗಳ ಮೂಲಕ ಜಾರಿಗೊಳಿಸಲಾಗುವುದಿಲ್ಲ.",
        "permdesc_writeSettings": "ಸಿಸ್ಟಂನ ಸೆಟ್ಟಿಂಗ್‌ಗಳ ಡೇಟಾವನ್ನು ಮಾರ್ಪಡಿಸಲು ಅಪ್ಲಿಕೇಶನ್‌ಗೆ ಅನುಮತಿಸುತ್ತದೆ. ದುರುದ್ದೇಶಪೂರಿತ ಅಪ್ಲಿಕೇಶನ್‌ಗಳು ನಿಮ್ಮ ಸಿಸ್ಟಂನ ಕಾನ್ಫಿಗಿರೆಶನ್‌ ಅನ್ನು ಹಾನಿ ಮಾಡಬಹುದು.",
        "permdesc_writeSyncSettings": "ಖಾತೆಗೆ ಸಿಂಕ್ ಸೆಟ್ಟಿಂಗ್‍‍ಗಳನ್ನು ಮಾರ್ಪಡಿಸಲು ಅಪ್ಲಿಕೇಶನ್‍‍ಗೆ ಅನುಮತಿಸುತ್ತದೆ. ಉದಾಹರಣೆಗೆ, ಖಾತೆಯನ್ನು ಹೊಂದಿರುವ ವ್ಯಕ್ತಿಗಳ ಸಿಂಕ್ ಸಕ್ರಿಯಗೊಳಿಸಲು ಇದನ್ನು ಬಳಸಬಹುದಾಗಿದೆ.",
        "permgroupdesc_activityRecognition": "ನಿಮ್ಮ ದೈಹಿಕ ಚಟುವಟಿಕೆಯನ್ನು ಪ್ರವೇಶಿಸಿ",
        "permgroupdesc_calendar": "ನಿಮ್ಮ ಕ್ಯಾಲೆಂಡರ್ ಪ್ರವೇಶಿಸಲು",
        "permgroupdesc_calllog": "ಪೋನ್‌ ಕರೆಯ ಲಾಗ್‌ ಅನ್ನು ಓದಿ ಮತ್ತು ಬರೆಯಿರಿ",
        "permgroupdesc_camera": "ಚಿತ್ರಗಳನ್ನು ತೆಗೆಯಲು, ವೀಡಿಯೊ ರೆಕಾರ್ಡ್ ಮಾಡಲು",
        "permgroupdesc_contacts": "ನಿಮ್ಮ ಸಂಪರ್ಕಗಳನ್ನು ಪ್ರವೇಶಿಸಲು",
        "permgroupdesc_location": "ಈ ಸಾಧನದ ಸ್ಥಳವನ್ನು ಪ್ರವೇಶಿಸಿ",
        "permgroupdesc_microphone": "ಆಡಿಯೊ ರೆಕಾರ್ಡ್ ಮಾಡಿ",
        "permgroupdesc_nearby_devices": "ಸಮೀಪದಲ್ಲಿರುವ ಸಾಧನಗಳನ್ನು ಅನ್ವೇಷಿಸಿ ಮತ್ತು ಕನೆಕ್ಟ್ ಮಾಡಿ",
        "permgroupdesc_notifications": "ಅಧಿಸೂಚನೆಗಳನ್ನು ತೋರಿಸಿ",
        "permgroupdesc_phone": "ಫೋನ್ ಕರೆ ಮಾಡಲು ಹಾಗೂ ನಿರ್ವಹಿಸಲು",
        "permgroupdesc_readMediaAural": "ನಿಮ್ಮ ಸಾಧನದಲ್ಲಿ ಸಂಗೀತ ಮತ್ತು ಆಡಿಯೊವನ್ನು ಪ್ರವೇಶಿಸಿ",
        "permgroupdesc_readMediaVisual": "ನಿಮ್ಮ ಸಾಧನದಲ್ಲಿ ಫೋಟೋಗಳು ಮತ್ತು ವೀಡಿಯೊಗಳನ್ನು ಪ್ರವೇಶಿಸಿ",
        "permgroupdesc_sensors": "ನಿಮ್ಮ ಮುಖ್ಯ ಲಕ್ಷಣಗಳ ಕುರಿತು ಸೆನ್ಸಾರ್ ಡೇಟಾವನ್ನು ಪ್ರವೇಶಿಸಿ",
        "permgroupdesc_sms": "SMS ಸಂದೇಶಗಳನ್ನು ಕಳುಹಿಸಲು ಮತ್ತು ನಿರ್ವಹಿಸಲು",
        "permgroupdesc_storage": "ಸಾಧನದಲ್ಲಿ ಫೋಟೋಗಳು, ಮಾಧ್ಯಮ ಮತ್ತು ಫೈಲ್‌ಗಳನ್ನು ಪ್ರವೇಶಿಸಲು",
        "permgrouplab_activityRecognition": "ದೈಹಿಕ ಚಟುವಟಿಕೆ",
        "permgrouplab_calendar": "Calendar",
        "permgrouplab_calllog": "ಕರೆಯ ಲಾಗ್‌",
        "permgrouplab_camera": "ಕ್ಯಾಮರಾ",
        "permgrouplab_contacts": "ಸಂಪರ್ಕಗಳು",
        "permgrouplab_location": "ಸ್ಥಳ",
        "permgrouplab_microphone": "ಮೈಕ್ರೋಫೋನ್‌",
        "permgrouplab_nearby_devices": "ಸಮೀಪದಲ್ಲಿರುವ ಸಾಧನಗಳು",
        "permgrouplab_notifications": "ಅಧಿಸೂಚನೆಗಳು",
        "permgrouplab_phone": "ಫೋನ್",
        "permgrouplab_readMediaAural": "ಸಂಗೀತ ಮತ್ತು ಆಡಿಯೋ",
        "permgrouplab_readMediaVisual": "ಫೋಟೋಗಳು ಮತ್ತು ವೀಡಿಯೊಗಳು",
        "permgrouplab_sensors": "ದೇಹದ ಸೆನ್ಸರ್‌",
        "permgrouplab_sms": "SMS",
        "permgrouplab_storage": "ಫೈಲ್‌ಗಳು",
        "permlab_acceptHandover": "ಮತ್ತೊಂದು ಅಪ್ಲಿಕೇಶನ್‌ ಮೂಲಕ ಕರೆಯನ್ನು ಮುಂದುವರಿಸಿ",
        "permlab_accessBackgroundLocation": "ಹಿನ್ನೆಲೆಯಲ್ಲಿ ಸ್ಥಳವನ್ನು ಪ್ರವೇಶಿಸಿ",
        "permlab_accessCoarseLocation": "ಮುನ್ನೆಲೆಯಲ್ಲಿ ಮಾತ್ರ ಅಂದಾಜು ಸ್ಥಳವನ್ನು ಪ್ರವೇಶಿಸಿ",
        "permlab_accessDrmCertificates": "DRM ಪ್ರಮಾಣಪತ್ರಗಳನ್ನು ಪ್ರವೇಶಿಸಿ",
        "permlab_accessFineLocation": "ಮುನ್ನೆಲೆಯಲ್ಲಿ ಮಾತ್ರ ನಿಖರವಾದ ಸ್ಥಳವನ್ನು ಪ್ರವೇಶಿಸಿ",
        "permlab_accessImsCallService": "IMS ಕರೆ ಸೇವೆಯನ್ನು ಪ್ರವೇಶಿಸಿ",
        "permlab_accessLocationExtraCommands": "ಹೆಚ್ಚುವರಿ ಸ್ಥಳ ಪೂರೈಕೆದಾರರ ಆದೇಶಗಳನ್ನು ಪ್ರವೇಶಿಸಿ",
        "permlab_accessNetworkConditions": "ನೆಟ್‌ವರ್ಕ್ ಪರಿಸ್ಥಿತಿಗಳ ಕುರಿತು ಪರಿಶೀಲನೆಗಳನ್ನು ಆಲಿಸಿ",
        "permlab_accessNetworkState": "ನೆಟ್‍ವರ್ಕ್ ಸಂಪರ್ಕಗಳನ್ನು ವೀಕ್ಷಿಸಿ",
        "permlab_accessNotifications": "ಅಧಿಸೂಚನೆಗಳನ್ನು ಪ್ರವೇಶಿಸಿ",
        "permlab_accessWifiState": "ವೈ-ಫೈ ಸಂಪರ್ಕಗಳನ್ನು ವೀಕ್ಷಿಸಿ",
        "permlab_accessWimaxState": "WiMAX ನಿಂದ ಸಂಪರ್ಕಗೊಳಿಸಿ ಮತ್ತು ಸಂಪರ್ಕ ಕಡಿತಗೊಳಿಸಿ",
        "permlab_access_notification_policy": "ಅಡಚಣೆ ಮಾಡಬೇಡಿಯನ್ನು ಪ್ರವೇಶಿಸಿ",
        "permlab_activityRecognition": "ದೈಹಿಕ ಚಟುವಟಿಕೆಯನ್ನು ಗುರುತಿಸಿ",
        "permlab_addVoicemail": "ಧ್ವನಿಮೇಲ್ ಸೇರಿಸಿ",
        "permlab_answerPhoneCalls": "ಫೋನ್ ಕರೆಗಳಿಗೆ ಉತ್ತರಿಸಿ",
        "permlab_audioWrite": "ನಿಮ್ಮ ಸಂಗೀತ ಸಂಗ್ರಹಣೆಯನ್ನು ಮಾರ್ಪಡಿಸಿ",
        "permlab_backgroundCamera": "ಹಿನ್ನೆಲೆಯಲ್ಲಿ ಚಿತ್ರಗಳು ಮತ್ತು ವೀಡಿಯೊಗಳನ್ನು ತೆಗೆದುಕೊಳ್ಳಿ",
        "permlab_bindCarrierMessagingService": "ವಾಹಕ ಸಂದೇಶ ಕಳುಹಿಸುವಿಕೆ ಸೇವೆಗೆ ಪ್ರತಿಬಂಧಿಸಿ",
        "permlab_bindCarrierServices": "ವಾಹಕ ಸೇವೆಗಳಿಗೆ ಪ್ರತಿಬಂಧಿಸಿ",
        "permlab_bindCellBroadcastService": "ಸೆಲ್ ಪ್ರಸಾರ ಸಂದೇಶಗಳನ್ನು ಫಾರ್ವರ್ಡ್ ಮಾಡಿ",
        "permlab_bindConditionProviderService": "ಕಂಡೀಶನ್‌‌ ಪೂರೈಕೆದಾರರ ಸೇವೆಯನ್ನು ಪ್ರತಿಬಂಧಿಸು",
        "permlab_bindDreamService": "ಕನಸಿನ ಸೇವೆಗೆ ಪ್ರತಿಬಂಧಿಸಿ",
        "permlab_bindNotificationListenerService": "ಅಧಿಸೂಚನೆ ಕೇಳುಗರ ಸೇವೆಗೆ ಪ್ರತಿಬಂಧಿಸಿ",
        "permlab_bind_connection_service": "ಟೆಲಿಫೋನಿ ಸೇವೆಗಳೊಂದಿಗೆ ಸಂವಾದ ನಡೆಸಿ",
        "permlab_bind_incall_service": "ಒಳ-ಕರೆ ಪರದೆಯ ಮೂಲಕ ಸಂವಹನ ನಡೆಸಿ",
        "permlab_bluetooth": "ಬ್ಲೂಟೂತ್‌ ಸಾಧನಗಳೊಂದಿಗೆ ಜೋಡಿಸಿ",
        "permlab_bluetoothAdmin": "ಬ್ಲೂಟೂತ್‌ ಸೆಟ್ಟಿಂಗ್‍ಗಳನ್ನು ಪ್ರವೇಶಿಸಿ",
        "permlab_bluetooth_advertise": "ಸಮೀಪದ ಬ್ಲೂಟೂತ್ ಸಾಧನಗಳಿಗೆ ಜಾಹೀರಾತು ನೀಡಿ",
        "permlab_bluetooth_connect": "ಜೋಡಿಸಿರುವ ಬ್ಲೂಟೂತ್ ಸಾಧನಗಳಿಗೆ ಕನೆಕ್ಟ್ ಮಾಡಿ",
        "permlab_bluetooth_scan": "ಸಮೀಪದಲ್ಲಿರುವ ಬ್ಲೂಟೂತ್ ಸಾಧನಗಳನ್ನು ಅನ್ವೇಷಿಸಿ ಮತ್ತು ಅವುಗಳಿಗೆ ಜೋಡಿಸಿ",
        "permlab_bodySensors": "ದೇಹ ಸೆನ್ಸರ್‌ಗಳನ್ನು ಪ್ರವೇಶಿಸಿ (ಹೃದಯದ ಬಡಿತ ಮಾನಿಟರ್‌ಗಳಂತಹ)",
        "permlab_bodySensors_background": "ಹಿನ್ನಲೆಯಲ್ಲಿರುವಾಗ ಹೃದಯ ಬಡಿತದಂತಹ ದೇಹದ ಸೆನ್ಸರ್‌ ಡೇಟಾವನ್ನು ಪ್ರವೇಶಿಸಿ",
        "permlab_broadcastSticky": "ಸ್ಟಿಕಿ ಪ್ರಸಾರವನ್ನು ಕಳುಹಿಸಿ",
        "permlab_callCompanionApp": "ಸಿಸ್ಟಂ ಮೂಲಕ ಕರೆಗಳನ್ನು ವೀಕ್ಷಿಸಿ ಮತ್ತು ನಿಯಂತ್ರಿಸಿ.",
        "permlab_callPhone": "ಫೋನ್ ಸಂಖ್ಯೆಗಳಿಗೆ ನೇರವಾಗಿ ಕರೆ ಮಾಡಿ",
        "permlab_camera": "ಚಿತ್ರಗಳು ಮತ್ತು ವೀಡಿಯೊಗಳನ್ನು ಸೆರೆಹಿಡಿಯಿರಿ",
        "permlab_cameraOpenCloseListener": "ಕ್ಯಾಮರಾ ಸಾಧನಗಳನ್ನು ತೆರೆಯುತ್ತಿರುವ ಅಥವಾ ಮುಚ್ಚುತ್ತಿರುವ ಕುರಿತು ಕಾಲ್‌ಬ್ಯಾಕ್‌ಗಳನ್ನು ಸ್ವೀಕರಿಸಲು ಆ್ಯಪ್‌ ಅಥವಾ ಸೇವೆಗೆ ಅನುಮತಿಸಿ.",
        "permlab_changeNetworkState": "ನೆಟ್‌ವರ್ಕ್ ಸಂಪರ್ಕತೆಯನ್ನು ಬದಲಾಯಿಸಿ",
        "permlab_changeTetherState": "ಟೆಥರಡ್ ಸಂಪರ್ಕತೆಯನ್ನು ಬದಲಾಯಿಸಿ",
        "permlab_changeWifiMulticastState": "ವೈ-ಫೈ ಮಲ್ಟಿಕ್ಯಾಸ್ಟ್ ಸ್ವೀಕಾರಕ್ಕೆ ಅನುಮತಿಸಿ",
        "permlab_changeWifiState": "ವೈ-ಫೈ ನಿಂದ ಸಂಪರ್ಕಗೊಳಿಸಿ ಮತ್ತು ಸಂಪರ್ಕ ಕಡಿತಗೊಳಿಸಿ",
        "permlab_changeWimaxState": "WiMAX ಸ್ಥಿತಿಯನ್ನು ಬದಲಿಸಿ",
        "permlab_connection_manager": "ಟೆಲಿಕಾಂ ಸಂಪರ್ಕಗಳನ್ನು ನಿರ್ವಹಿಸಿ",
        "permlab_control_incall_experience": "ಒಳ ಕರೆ ಬಳಕೆದಾರರ ಅನುಭವವನ್ನು ಒದಗಿಸಿ",
        "permlab_createNetworkSockets": "ಪೂರ್ಣ ನೆಟ್‌ವರ್ಕ್ ಪ್ರವೇಶವನ್ನು ಹೊಂದಿರಿ",
        "permlab_disableKeyguard": "ನಿಮ್ಮ ಸ್ಕ್ರೀನ್ ಲಾಕ್ ಅನ್ನು ನಿಷ್ಕ್ರಿಯಗೊಳಿಸಿ",
        "permlab_enableCarMode": "ಕಾರು ಮೋಡ್ ಸಕ್ರಿಯಗೊಳಿಸಿ",
        "permlab_exemptFromAudioRecordRestrictions": "ಆಡಿಯೋ ರೆಕಾರ್ಡ್ ಮಾಡುವ ನಿರ್ಬಂಧಗಳಿಂದ ವಿನಾಯಿತಿ ನೀಡಿ",
        "permlab_expandStatusBar": "ಸ್ಥಿತಿ ಪಟ್ಟಿಯನ್ನು ವಿಸ್ತರಿಸಿ/ಸಂಕುಚಿಸಿ",
        "permlab_foregroundService": "ಮುನ್ನೆಲೆ ಸೇವೆಯನ್ನು ರನ್‌ ಮಾಡಿ",
        "permlab_fullScreenIntent": "ಲಾಕ್ ಮಾಡಲಾದ ಸಾಧನದಲ್ಲಿ ಅಧಿಸೂಚನೆಗಳನ್ನು ಪೂರ್ಣ-ಸ್ಕ್ರೀನ್ ಚಟುವಟಿಕೆ ರೀತಿಯಲ್ಲಿ ಡಿಸ್‌ಪ್ಲೇ ಮಾಡಿ",
        "permlab_getAccounts": "ಸಾಧನದಲ್ಲಿ ಖಾತೆಗಳನ್ನು ಹುಡುಕಿ",
        "permlab_getPackageSize": "ಅಪ್ಲಿಕೇಶನ್‌ ಸಂಗ್ರಹ ಸ್ಥಳವನ್ನು ಅಳೆಯಿರಿ",
        "permlab_getTasks": "ರನ್‌ ಆಗುತ್ತಿರುವ ಅಪ್ಲಿಕೇಶನ್‌ಗಳನ್ನು ಹಿಂಪಡೆಯಿರಿ",
        "permlab_handoverStatus": "Android ಬೀಮ್ ವರ್ಗಾವಣೆ ಸ್ಥಿತಿ ಸ್ವೀಕರಿಸಿ",
        "permlab_highSamplingRateSensors": "ಹೆಚ್ಚಿನ ನಮೂನೆ ದರದಲ್ಲಿ ಸೆನ್ಸಾರ್ ಡೇಟಾ ಪ್ರವೇಶಿಸಿ",
        "permlab_imagesWrite": "ನಿಮ್ಮ ಫೋಟೋ ಸಂಗ್ರಹಣೆಯನ್ನು ಮಾರ್ಪಡಿಸಿ",
        "permlab_install_shortcut": "ಶಾರ್ಟ್‌ಕಟ್‌ಗಳನ್ನು ಸ್ಥಾಪಿಸಿ",
        "permlab_invokeCarrierSetup": "ವಾಹಕ-ಒದಗಿಸಿರುವ ಕಾನ್ಫಿಗರೇಶನ್ ಅಪ್ಲಿಕೇಶನ್‌ಗೆ ವಿನಂತಿಸಿಕೊಳ್ಳಿ",
        "permlab_killBackgroundProcesses": "ಇತರೆ ಅಪ್ಲಿಕೇಶನ್‍ಗಳನ್ನು ಮುಚ್ಚಿ",
        "permlab_manageFace": "ಫೇಸ್ ಅನ್‌ಲಾಕ್ ಹಾರ್ಡ್‌ವೇರ್ ಅನ್ನು ನಿರ್ವಹಿಸಿ",
        "permlab_manageFingerprint": "ಫಿಂಗರ್‌ಪ್ರಿಂಟ್ ಹಾರ್ಡ್‌ವೇರ್ ನಿರ್ವಹಿಸಿ",
        "permlab_manageNetworkPolicy": "ನೆಟ್‌ವರ್ಕ್ ನೀತಿಯನ್ನು ನಿರ್ವಹಿಸಿ",
        "permlab_manageOngoingCalls": "ಚಾಲ್ತಿಯಲ್ಲಿರುವ ಕರೆಗಳನ್ನು ನಿರ್ವಹಿಸಿ",
        "permlab_manageOwnCalls": "ಕರೆಗಳನ್ನು ಸಿಸ್ಟಂ ಮೂಲಕ ರವಾನಿಸಿ",
        "permlab_manageProfileAndDeviceOwners": "ಪ್ರೊಫೈಲ್ ಮತ್ತು ಸಾಧನ ಮಾಲೀಕರನ್ನು ನಿರ್ವಹಿಸಿ",
        "permlab_mediaLocation": "ನಿಮ್ಮ ಮೀಡಿಯಾ ಸಂಗ್ರಹಣೆಯಿಂದ ಸ್ಥಳಗಳನ್ನು ಓದಿ",
        "permlab_modifyAudioSettings": "ನಿಮ್ಮ ಆಡಿಯೊ ಸೆಟ್ಟಿಂಗ್‌ಗಳನ್ನು ಬದಲಾಯಿಸಿ",
        "permlab_modifyNetworkAccounting": "ನೆಟವರ್ಕ್ ಬಳಕೆಯ ಲೆಕ್ಕ ಪರಿಶೋಧನೆಯನ್ನು ಮಾರ್ಪಡಿಸಿ",
        "permlab_nearby_wifi_devices": "ಹತ್ತಿರದ ವೈ -ಫೈ ಸಾಧನಗಳ ಜೊತೆಗೆ ಸಂವಹನ ನಡೆಸಿ",
        "permlab_nfc": "ಸಮೀಪ ಕ್ಷೇತ್ರ ಸಂವಹನವನ್ನು ನಿಯಂತ್ರಿಸಿ",
        "permlab_persistentActivity": "ಅಪ್ಲಿಕೇಶನ್‌‌ ಅನ್ನು ಯಾವಾಗಲೂ ರನ್‌ ಆಗುವಂತೆ ಮಾಡಿ",
        "permlab_postNotification": "ಅಧಿಸೂಚನೆಗಳನ್ನು ತೋರಿಸಿ",
        "permlab_preferredPaymentInfo": "ಆದ್ಯತೆಯ NFC ಪಾವತಿ ಸೇವಾ ಮಾಹಿತಿ",
        "permlab_processOutgoingCalls": "ಹೊರಹೋಗುವ ಕರೆಗಳ ಮಾರ್ಗ ಬದಲಿಸಿ",
        "permlab_queryAllPackages": "ಎಲ್ಲಾ ಪ್ಯಾಕೇಜ್‌ಗಳ ಕುರಿತಾದ ಮಾಹಿತಿಯನ್ನು ಕೇಳಿ",
        "permlab_readBasicPhoneState": "ಮೂಲ ಟೆಲಿಫೋನ್ ಸ್ಥಿತಿ ಮತ್ತು ಗುರುತನ್ನು ಓದಿ",
        "permlab_readCalendar": "ಕ್ಯಾಲೆಂಡರ್ ಈವೆಂಟ್‌ಗಳು ಮತ್ತು ವಿವರಗಳನ್ನು ಓದಿ",
        "permlab_readCallLog": "ಕರೆಯ ಲಾಗ್‌ ಓದಿ",
        "permlab_readCellBroadcasts": "ಸೆಲ್ ಪ್ರಸಾರದ ಸಂದೇಶಗಳನ್ನು ಓದಿರಿ",
        "permlab_readContacts": "ನಿಮ್ಮ ಸಂಪರ್ಕಗಳನ್ನು ಓದಿರಿ",
        "permlab_readHistoryBookmarks": "ನಿಮ್ಮ ವೆಬ್ ಬುಕ್‍‍ಮಾರ್ಕ್‌ಗಳು ಮತ್ತು ಇತಿಹಾಸವನ್ನು ಓದಿ",
        "permlab_readInstallSessions": "ಸ್ಥಾಪನೆ ಸೆಶನ್‌ಗಳನ್ನು ಓದಿ",
        "permlab_readMediaAudio": "ಹಂಚಿಕೊಂಡ ಸಂಗ್ರಹಣೆಯಿಂದ ಆಡಿಯೋ ಫೈಲ್‌ಗಳನ್ನು ಓದಿ",
        "permlab_readMediaImages": "ಹಂಚಿಕೊಂಡ ಸಂಗ್ರಹಣೆಯಿಂದ ಚಿತ್ರದ ಫೈಲ್‌ಗಳನ್ನು ಓದಿ",
        "permlab_readMediaVideo": "ಹಂಚಿಕೊಂಡ ಸಂಗ್ರಹಣೆಯಿಂದ ವೀಡಿಯೊ ಫೈಲ್‌ಗಳನ್ನು ಓದಿ",
        "permlab_readNetworkUsageHistory": "ಐತಿಹಾಸಿಕ ನೆಟ್‌ವರ್ಕ್ ಬಳಕೆಯನ್ನು ಓದಿರಿ",
        "permlab_readPhoneNumbers": "ಫೋನ್‌ ಸಂಖ್ಯೆಗಳನ್ನು ಓದಿ",
        "permlab_readPhoneState": "ಫೋನ್ ಸ್ಥಿತಿ ಮತ್ತು ಗುರುತಿಸುವಿಕೆಯನ್ನು ಓದಿ",
        "permlab_readSms": "ನಿಮ್ಮ ಪಠ್ಯ ಸಂದೇಶಗಳನ್ನು ಓದಿ (SMS ಅಥವಾ MMS)",
        "permlab_readSyncSettings": "ಸಿಂಕ್ ಸೆಟ್ಟಿಂಗ್‌ಗಳನ್ನು ರೀಡ್‌ ಮಾಡು",
        "permlab_readSyncStats": "ಸಿಂಕ್ ಅಂಕಿಅಂಶಗಳನ್ನು ಓದಿರಿ",
        "permlab_receiveBootCompleted": "ಪ್ರಾರಂಭದಲ್ಲಿ ರನ್ ಮಾಡಿ",
        "permlab_receiveMms": "ಪಠ್ಯ ಸಂದೇಶಗಳನ್ನು ಸ್ವೀಕರಿಸಿ (MMS)",
        "permlab_receiveSms": "ಪಠ್ಯ ಸಂದೇಶಗಳನ್ನು ಸ್ವೀಕರಿಸಿ (SMS)",
        "permlab_receiveWapPush": "ಪಠ್ಯ ಸಂದೇಶಗಳನ್ನು ಸ್ವೀಕರಿಸಿ (WAP)",
        "permlab_recordAudio": "ಆಡಿಯೊ ರೆಕಾರ್ಡ್ ಮಾಡಿ",
        "permlab_recordBackgroundAudio": "ಹಿನ್ನೆಲೆಯಲ್ಲಿ ಆಡಿಯೊವನ್ನು ರೆಕಾರ್ಡ್ ಮಾಡಿ",
        "permlab_register_call_provider": "ಹೊಸ ಟೆಲಿಕಾಮ್ ಸಂಪರ್ಕಗಳನ್ನು ನೋಂದಾಯಿಸಿ",
        "permlab_register_sim_subscription": "ಹೊಸ ಟೆಲಿಕಾಮ್ ಸಿಮ್‌ ಸಂಪರ್ಕಗಳನ್ನು ನೋಂದಾಯಿಸಿ",
        "permlab_removeDrmCertificates": "DRM ಪ್ರಮಾಣಪತ್ರಗಳನ್ನು ತೆಗೆದುಹಾಕಿ",
        "permlab_reorderTasks": "ರನ್‌ ಆಗುತ್ತಿರುವ ಅಪ್ಲಿಕೇಶನ್‌ಗಳನ್ನು ಮರುಕ್ರಮಗೊಳಿಸಿ",
        "permlab_requestDeletePackages": "ಪ್ಯಾಕೇಜ್‌ಗಳನ್ನು ಅಳಿಸಲು ವಿನಂತಿ",
        "permlab_requestIgnoreBatteryOptimizations": "ಬ್ಯಾಟರಿ ಆಪ್ಟಿಮೈಸೇಶನ್‌ಗಳನ್ನು ಕಡೆಗಣಿಸಲು ಕೇಳಿ",
        "permlab_requestInstallPackages": "ಸ್ಥಾಪನೆ ಪ್ಯಾಕೇಜ್‌ಗಳನ್ನು ವಿನಂತಿಸಿ",
        "permlab_requestPasswordComplexity": "ಸ್ಕ್ರೀನ್ ಲಾಕ್ ಸಂಕೀರ್ಣತೆಯನ್ನು ವಿನಂತಿಸಿ",
        "permlab_route_media_output": "ಮಾಧ್ಯಮ ಔಟ್‍ಪುಟ್ ಅನ್ನು ರೂಟ್ ಮಾಡಿ",
        "permlab_runInBackground": "ಹಿನ್ನಲೆಯಲ್ಲಿ ರನ್ ಮಾಡಿ",
        "permlab_sdcardRead": "ನಿಮ್ಮ ಹಂಚಿಕೊಂಡ ಸಂಗ್ರಹಣೆಯ ವಿಷಯಗಳನ್ನು ಓದಿ",
        "permlab_sdcardWrite": "ನಿಮ್ಮ ಹಂಚಿಕೊಂಡ ಸಂಗ್ರಹಣೆಯ ವಿಷಯಗಳನ್ನು ಮಾರ್ಪಡಿಸಿ ಅಥವಾ ಅಳಿಸಿ",
        "permlab_sendSms": "SMS ಸಂದೇಶಗಳನ್ನು ಕಳುಹಿಸಲು ಮತ್ತು ನಿರ್ವಹಿಸಲು",
        "permlab_setAlarm": "ಅಲಾರಮ್ ಹೊಂದಿಸಿ",
        "permlab_setInputCalibration": "ಇನ್‌ಪುಟ್‌‌ ಸಾಧನ ಮಾಪನಾಂಕ ನಿರ್ಣಯವನ್ನು ಬದಲಾಯಿಸಿ",
        "permlab_setTimeZone": "ಸಮಯದ ವಲಯವನ್ನು ಹೊಂದಿಸಿ",
        "permlab_setWallpaper": "ವಾಲ್‌ಪೇಪರ್ ಹೊಂದಿಸಿ",
        "permlab_setWallpaperHints": "ನಿಮ್ಮ ವಾಲ್‍ಪೇಪರ್ ಗಾತ್ರವನ್ನು ಸರಿಹೊಂದಿಸಿ",
        "permlab_sim_communication": "ಸಿಮ್‌ಗೆ ಆಜ್ಞೆಗಳನ್ನು ಕಳುಹಿಸಿ",
        "permlab_startReviewPermissionDecisions": "ಅನುಮತಿಯ ನಿರ್ಧಾರಗಳನ್ನು ವೀಕ್ಷಿಸಲು ಪ್ರಾರಂಭಿಸಿ",
        "permlab_startViewAppFeatures": "ಆ್ಯಪ್ ವೈಶಿಷ್ಟ್ಯಗಳನ್ನು ವೀಕ್ಷಿಸಲು ಪ್ರಾರಂಭಿಸಿ",
        "permlab_startViewPermissionUsage": "ವೀಕ್ಷಣಾ ಅನುಮತಿಯ ಬಳಕೆಯನ್ನು ಪ್ರಾರಂಭಿಸಿ",
        "permlab_statusBar": "ಸ್ಥಿತಿ ಪಟ್ಟಿಯನ್ನು ನಿಷ್ಕ್ರಿಯಗೊಳಿಸಿ ಇಲ್ಲವೇ ಮಾರ್ಪಡಿಸಿ",
        "permlab_statusBarService": "ಸ್ಥಿತಿ ಪಟ್ಟಿಯಾಗಿರಲು",
        "permlab_subscribedFeedsRead": "ಚಂದಾದಾರ ಫೀಡ್‌ಗಳನ್ನು ಓದಿ",
        "permlab_systemAlertWindow": "ಈ ಅಪ್ಲಿಕೇಶನ್ ಇತರ ಅಪ್ಲಿಕೇಶನ್‌ಗಳ ಮೇಲೆ ಕಾಣಿಸಿಕೊಳ್ಳಬಹುದು",
        "permlab_systemCamera": "ಫೋಟೋಗಳು ಮತ್ತು ವೀಡಿಯೊಗಳನ್ನು ತೆಗೆದುಕೊಳ್ಳಲು ಸಿಸ್ಟಂ ಕ್ಯಾಮರಾಗಳಿಗೆ ಅಪ್ಲಿಕೇಶನ್ ಅಥವಾ ಸೇವಾ ಪ್ರವೇಶವನ್ನು ಅನುಮತಿಸಿ",
        "permlab_transmitIr": "ಇನ್‌ಫ್ರಾರೆಡ್ ಪ್ರಸಾರ ಮಾಡು",
        "permlab_uninstall_shortcut": "ಶಾರ್ಟ್‌ಕಟ್‌ಗಳನ್ನು ಅನ್‌ಇನ್‌ಸ್ಟಾಲ್ ಮಾಡಿ",
        "permlab_useBiometric": "ಬಯೋಮೆಟ್ರಿಕ್ ಹಾರ್ಡ್‌ವೇರ್‌ ಬಳಸಿ",
        "permlab_useDataInBackground": "ಹಿನ್ನಲೆಯಲ್ಲಿ ಡೇಟಾ ಬಳಕೆ ಮಾಡಿ",
        "permlab_useFaceAuthentication": "ಫೇಸ್ ಅನ್‌ಲಾಕ್ ಹಾರ್ಡ್‌ವೇರ್ ಬಳಸಿ",
        "permlab_useFingerprint": "ಫಿಂಗರ್‌ಪ್ರಿಂಟ್ ಹಾರ್ಡ್‌ವೇರ್ ಬಳಸಿ",
        "permlab_use_sip": "ಎಸ್‌ಐಪಿ ಕರೆಗಳನ್ನು ಮಾಡಿ/ಸ್ವೀಕರಿಸಿ",
        "permlab_uwb_ranging": "ಸಮೀಪದಲ್ಲಿರುವ ಅಲ್ಟ್ರಾ-ವೈಡ್‌ಬ್ಯಾಂಡ್ ಸಾಧನಗಳ ನಡುವೆ ಸಂಬಂಧಿತ ಸ್ಥಾನವನ್ನು ನಿರ್ಧರಿಸುತ್ತದೆ",
        "permlab_vibrate": "ವೈಬ್ರೇಷನ್‌‌ ನಿಯಂತ್ರಿಸಿ",
        "permlab_videoWrite": "ನಿಮ್ಮ ವೀಡಿಯೊ ಸಂಗ್ರಹಣೆಯನ್ನು ಮಾರ್ಪಡಿಸಿ",
        "permlab_wakeLock": "ಕಾರ್ ಸ್ಕ್ರೀನ್ ಅನ್ನು ಆನ್‌ನಲ್ಲೇ ಇರಿಸಿ",
        "permlab_writeCalendar": "ಮಾಲೀಕರ ಗಮನಕ್ಕೆ ತರದೆಯೇ ಕ್ಯಾಲೆಂಡರ್ ಈವೆಂಟ್‌ಗಳನ್ನು ಸೇರಿಸಿ ಅಥವಾ ಮಾರ್ಪಡಿಸಿ ಮತ್ತು ಅತಿಥಿಗಳಿಗೆ ಇಮೇಲ್ ಕಳುಹಿಸಿ",
        "permlab_writeCallLog": "ಕರೆ ಲಾಗ್ ಬರೆಯಿರಿ",
        "permlab_writeContacts": "ನಿಮ್ಮ ಸಂಪರ್ಕಗಳನ್ನು ಮಾರ್ಪಡಿಸಿ",
        "permlab_writeGeolocationPermissions": "ಬ್ರೌಸರ್‌ ಜಿಯೋಲೊಕೇಶನ್‌‌ ಅನುಮತಿಗಳನ್ನು ಮಾರ್ಪಡಿಸಿ",
        "permlab_writeHistoryBookmarks": "ವೆಬ್ ಬುಕ್‌ಮಾರ್ಕ್‌ಗಳು ಮತ್ತು ಇತಿಹಾಸವನ್ನು ಬರೆಯಿರಿ",
        "permlab_writeSettings": "ಸಿಸ್ಟಂ ಸೆಟ್ಟಿಂಗ್‍ಗಳನ್ನು ಮಾರ್ಪಡಿಸಿ",
        "permlab_writeSyncSettings": "ಸಿಂಕ್ ಆನ್ ಮತ್ತು ಸಿಂಕ್ ಆಫ್ ಟಾಗಲ್ ಮಾಡಿ"
    }
}
